128
00000000000000000001010100000100100000100000100000000100000000001000100100001000000000000000100000000000100000000000000110000000
00000000000000000100000101000000110000100000000000010010000001100000010101000101000011001010000100000000000011010000010000000000
00010000000001010000000000000000000000001000011000010010000100000000010000000100000000000000000000001000010000000000000000000100
00100001000000001100100001000000001010000100011000000001010000000000000100010001001100000000000000000000000000000000000010000000
00000000000110010000000000000000000000010000000000000000011101000001000000000001010000000000010000010000000010000010000100000000
00000000000000000000000010000000000000001000010001100010000000000000000000100000000000000001000010000000000000000000000001000001
00000000000001000000110000000000000100001001000001000001000000100000000010000000000000000000000001110000000000011000000100010000
00010000010100000000000010000000000000001001010010001010000000010000000000000000000010000000000010100111100000000010000000000000
00000000000000000000000000100000100000000110010000000000000000000000000000000000000010001100000001000000000000000100000100001000
00000001000100001100000000000001000000000001000000000000010000001011000000000000000010000001001000001000000111001000001001000100
00000000000000001000000000000000000010000010000000000000000000110000100000100001001000100101000000010000000000110000000001010100
00001001010000000000000010000000000000000100001000000000000010000000010000001100001000001000000000000000010000000000000000000011
00001000000000000100000000000000001100011100000100010100000000000000000000000010000001000001000000000000000000001000010000000000
00100010000000000000000000001000000000101000000000000000100000000000000000000000000000000000010000000000100001000000000000100110
00000000000000000001000000000000000000000000010001001010000010000000000000001000001100000010000000001000000000011000000000000000
00101000000000000000000000000000111000001000000000000010000000000000000001000000000100000001000000100000000000000010100000000000
00010000011000000000000101000000000010010001000110110000000000000010000000000000000000000000100010100000001001000100000000001000
01010000010010000000000000000000000010000001010000100000000000000000001010100001000000001000000100100000000000000101010000000000
00000000000000000000010000000100001010001000100000000000000000000000001101000000001000010000000000000101010011000010000000100010
10000000000000100000000010000000000000000100000000001000000000000010000001000101001000010000010000000000000000000000000000010001
00010010000000000000000000000000000000000000001010000000000000000000001010010000000011000000000000010010000000000010000001001000
10000010000000000010000000000000000000000100000000000000000000110001001000000100001100100000000000000001010010001000000010000000
00000000000000000000000000000100000000000000000000000100000001000000001010000000001000010000000000001000000000000000000000101000
11000000000000001000000010000001000000000000000100000010000110010000000010010000010000000111000100010000000001010000000001000000
00000101000100000001000101000010000000001000000000000000000000000010100000000011000010000100000000010000000000000000000000011000
01010000000000001000000010000010100000000000001000000000000000000000000000110000000001001100000100000010000000000000000000000000
00000000100000000000000000000000100000101000010000010000000000000000000001000010000000000010010000000000000001010000000000100001
00000000000000000000000000000110000010100000101000000000001000010010000000000011001000000000100100000100000000000000100000000100
00000000000001000000000000000000000001000100000001001100100000000000000000000000000000000000100000000010010000010000000000000100
10000000000000000010001000010000001000001000000010100001000000000000100000001000010000000100000011000001000000100000000000100000
00000000000000000000000011010000000000000000000000000000010010000000000000000000010000010000000001000000100000100000000000000000
00000000010000000000000100000000000000000000000000010000101001011000000010000000000000000100010100000000000000000000000001000101
11000000100000010000000001100000010001000000000000010000000100000010000000000000000000110001001000001111010000010001000000100000
01000000000000010000000000000000100000000000000000000000000001100000000000000000000000000010000100100000000000000000000100000000
00010000000010010010000000000100000001010100000000010010000011000000000000010000100100110010101100100100000000000000000010000100
00000010000010000000000000000000000001000000001000000010000000010101000000001100010001000000000000110000100000000000001000010000
00010000001000001110000000010000000000101000000000001100000001000010000001000001000000010011100000000010000001000000000010000000
00000000000000000000000000001000101100000000000000000100000000010000010000000000000001100000000000000001001000001010000010000000
11000000000001000000000000110000000010010000010000000000000000000000000000000001000000001000000000000000100000000000000110000000
00001000000010001000000000000000001000100010000000010000001010110000000000000000010010000010000000000000000110000000000000000001
00100111000011010010000010100100000010000100011100010010000000010100001000000001010001000000000000100000000000000100000000000001
00010000100110000001010000001000001000001000100001000000000000100001010000000000000010000000000001001010001000000000000000000100
00000000101000000000000000000000000000010000000010000100001000000100100100000000000000001000001011000010000000000000000000000100
00000011010000001100000000000000000000000000000000000010000000000001000011000000000000100000000100000000000101000100000000011000
10000000000000000010000000010000000000000100000000000000000000000101000000000000000000000000000001000010000110000000001000000010
00110101100000100100000000100000000000101000000000000100000000000000100000000000000001010100000000000001000000000110100000000000
00110000000100000000100001010000000100001000000000000001000010010010000000110000000100100000000000000000000000010000000010000100
00000000000010001000000100000000000000001000000000000000000000000100000010000000000010000000000100001000110010000010000000000100
00000001000000001000100000000100000000000010000000000010000000000000000000000100010000000100000010000001000010000001000000001001
00000110000000100000000000001000000000000100000000000000010000000010000000010010000010000000000000000000101000010000000100000100
00000100000000001100000000000100000000000000000000001100000001100000010000000000000000010100000010001100000000101000010010000000
01100000000010001000000000100001101000011000000000001001001000010000000000010100001000001100011000000000000000000010100001000000
00000001000000100001000000001000000010000000000000110000000000000000100000101010000000000000100010000000000000000000000000100001
10000000000010000000001000001000000011000010010000100000000000000001010000000000000100000000000000000000010001000000000000000000
01100101000000110000000100000000001100001001000010000000000000000000000000001000000000100100000000000001000000001001000000000011
00010010000000000000000000000100000000000000001000010000000000000000000000000110000000000000001100000000000000000000000000000000
00000000000001000000000000001001000000000000000000000000000000000000000000000000000000000000000010000000000001010100000000000100
00011000010000000000000000000010000000000000000001000000000010000000000000000000000000001000000000000000000000000000010001000000
00001000000000000000000000010001000000010010000000010000000100000000000000001110000000000001000000000000100000001000001010000000
00101000000000000000000100000000100000000000000000000000001000000100011000010010000011000000000000000000000000000100000010000000
00000000000100100000000100000010001000010000001000000000010000001100000000001101000000001000000000000000000001000000100000000000
01001000000000000000001000000001011010000000000000100000000000100000000010010000000010000100000010000000000100001000000001010100
01000010001000000000010000000000010000010100000000100000000001000000000010000000000000000000000000001000000001001000000000000000
00000001001000000000010100010001000101011000001000010000000000000000001000000000000000000000000000000000000110100000000001010010
10000000010000000000000000000001000000000000000000000000000010000000000010000010000000000000001000000000000000000000100000001000
00000000000000000000000000000000000100001010100100000000000110000000010000000000000000000000000000000010000000010000000100100000
00000000010000001001000010010000100010000000001001000000000000000000011000010100100001000001010000100000000000100100000000000100
00001000010000000000010000000000000100000101100000000100000000000000000001000000100001001000110000101000001000010010000000000001
10000000001000000000000010000100000000000010010000001000000000000000000001000000000010010000000000000100000000000000000100000010
01100000000100000000000000000000000001000100000000100100000100000110000001001001010000010000010000100000000000000001000100010000
00000000000000000110111000000000000000001000000000000000000100010010000000000010000000100001010001000000000000001100110000000000
11010000000000000010000000000000000000000010000000000000000000000000000000000000000000000000000000000000000100000000000000000000
00000010000000000100101100000001000000000001000100000000000001101000000001000000010010000100000010000000000010000000000010001000
01000000000000010011000000100000000010000001000000000000000000000001110010000001000000001000000000010000000000010010001000000000
00000100001000000100000001000000000000000000001000001000000000000000000000000100011110000000000100001001000001001000000000010010
00010000000000000000100101000000001000000000001001010000000101000010000000000000000001010000000100000001000000000001000000101000
10000000000100100000000000000100000100000000000000001010001010000000010000000000101000000000000100000010001001000000010010000000
01100000000100000001010000000000000100000000000010010001001010000010000000100000000000000100000101000000000100000000000000010000
00000000000010000000000010110000000000000000000001001001001100001000001000000000000000001000000000100000000000001000000010011001
01011000001000000101000010010000000010101000000000000000000010000000010001000000000001000000000010000001000000000000000100000000
00000000000000000000000000000000001000000000000000000000000000000011000000001000000000000000000000000100100001000000000000100000
00001000000000000000000100000110000100011000000010000000000000000000010010100000000000001001101100000000001000001000000000000000
00010000001100100011011000010000000000000000000000010000000000000000000000101000000001000010010000000001000010000010000000000000
00010000000000110000010000000000001000000000001000000100000000000000000000100000000000001000000000000000000000000000000100000010
01000001110000000000100010000000000000010100000101000000000101000000100010100000000000010000000000000000100000000000000000000000
01000000000010000000100001000000000101001000010000000000000100000011000000010001001000001000000000000100001000000000001000000000
00000000001000000000010000000000101001000001001000000010000000000000001000000000000000000100000000000000001000001001100100100000
00000000000000000011001000000010101010000000010000100000000000000000110000010000000010001000000000000000001010010011010000000000
01000000100100000100000001000000000000100010000000010000010010000001000001000010010101010100010000010000000100000000000000100100
00000000101000000000000111000101000000000000010010110010000001000000000010000100000000101000001010100000100000100000100100010010
01000000000000100000000100100000011010010000000000000000000000000000000000000000001000000001000010000000000100000000000000010000
00000100011010010000000100000000100010000000000000000000001000000010001000000000010000000010000000000000010000010000011000000000
10000000000000001000000000011000001010000000000000001000000000000001000000000000010000000000000000000000001000000000000000001000
00001000000001000001000000100001000000000000000000010000000000000011011000000000001000001000000000101000000010000000000000100000
00000000010000000000000000000000101000000010000000010001000000001000000000000000010000000100000100000000000000000000000000001001
01000000000000000100000101010001011000000001000100000001000000000000000000111100010000000000001000000000000000000010100000000000
00000101000000001000000000000100000000000010000010101000100001000000000010000001000000000110000001000000000100110001001100000000
00000010100000000000000000000110000000000110100000000000000000000000001000000100000000000000000010000000001000000010000000001100
00000011000000011100000000000000011100001000000000000000000000000011010000000010000000000100010000000010000000000000000000000000
00001010001000000000100110000000000100000000000000000000000000000000000001000000000000001000000000000001000000000000010000000000
00100000010000100000001000000000100000000100000100100000000000100001000000100000000000000000010000000000000011010000000000000100
00000001000000000010000000010000101000000000000000100000000000000000100000000000100001000000000000000000000001000010001010000000
00000001000000000000100001001000100010000110100000000000000000000100000000001000000000000000000000100000010000011010000000000000
00000001000000000010010000000100100001000000010010000010000000000000000000110001001000000000000000010000000000100000000000000000
10000001000001000000000000000010000100100000000101000000001000000000000000000000100010000100000000000000000000000101000000000100
00100000000100000010010000001000100000000000000100000100000000000000000000000000000000000001000000000010000000000000010100000010
00000000000000001000000000000000000001000100000001000000000000000001000000001000010001110000100001000000000000000001101000100001
00000000010000000000000000000000000000010001100000000000000001010000000100000100000000001010000010000000000000000000000000000000
01001000010000000010010000000000000000010000100110000000000000010000000010000000001000010000010000001000000000010100100000110000
01000000010001001010000100100000000010000001000000000100100010100000000000101000100000000000000000001100000000000000000001001010
00000000001000000000000000000110000000000000000000100000000000010010000000000000000000000100000010000001000000000010000000000001
01000010001000100000000100101000100000000000001001000000100000000101000001000000000000010001000010001010000010000000000000000000
00000010010010100000010000000000000001000000000000100010001001100000001000100010010000100000000000000010000000000000000000000000
00000000100000001100000000000000000000001001010000000000100100000010001000000000000000000000000000000000100010000000010010010000
00001001000000010010100000000000000001000000010100010000000000000001000001000000001000010000000101000110000000100000000000000000
00000000000000000100000000000000100000000000000010000010000000000000010000010000000000110000000010000000101000000000001000000000
00000000000000010000000000010000000000000000010000010000000010001000001000000000000000100100000100000000001010000000001000100000
01000000000010000100000000000000000000000000000000100000010000000000001000001000000000010001000000010000010000000100000000000010
00000000010000000000000000000000000100000000100000000000001000000000000001000000000001000001000010000100001000000001100000010000
10001010100000000000000000000000010000100000000001000000000000000100110000000001000100100100000010000000010000000000000000000000
10010000000000000000010000000000001011100000001000100000001100000000000010001010000000000000000000000100000000000100000000000000
00000100011000000000100100000001000000000000000000010000010001010000000000000000000000000000000000000000000001000000000000000000
00000000000001000010001000100100100000000000000000001000000000000100000000010000100000101000010000000000001010000000100000000000
00000010001000000001000010000000000100000001000000000000000001010000010000100110000000000110000000000000000010000100001000001000
00000000100000001000101010000000000000000001000010000000000000001000000010010010000000000000101001000000000001000000000000010000
00100000011001000000000000011001001000000110001101000000100001000010000000000000000000001000000001001000100000000000000000000000
00000000000101000010000000000000000000000000100000000010000000010000100000100000000100000100000000000000010001000000010000000000
00000100000100000001000000100001000000011000000010001010000000000001000000000010000000000000001000000000001000100000000000000000
