128
00100000000001000000000000001000100100100000000000000000000000000010000000000000001000000000000000000000000000010000001000000000
00000001000000000000000000000000000000000000000000000000000000000000000000100100000000000000000000000000000000000000000000010000
10000000000000000000000000000000100000100000000000000000000000000010001000000000000000000000000000000100000000000100000000000010
00000001000000000000000010000000000001000000000000000001000100000000000000001001100000000000000000000100000000000100000000000000
00000000000000000000000010000000000100000000000000100100010000001010000000000000000000100000000000000000000001000000100000000000
00000000000000000000000001000010000000000000000000000000000000000000001001000000000000000000000000000000000000000000000000000000
00000000000000000001000000001000000001000000000000000000000000001100010000000000000000000100000000000010000000000000001000000000
01010000001000000000000000000000000000100000000000000000000000000000000100010000000010000010000000000000000000000000100000000000
00000000000000001000000000000000000000000001000000000000000000000000000000000000100000000000000000000000000000000000000000000000
00000000000000001000000000000000101000001001100000000000000001000000010000000000000000000000000000000000000000001000000000010100
00000001000000000000000000000000100000000000000000010000000000000000000001000000000000000000000000000000000000000000000000000001
00000000000000000000000001000000010000010000000000000000000001000000010000000000000000000000000000000000000000010010000010000000
00000000000000000000100000000000000000000000000000000001000000001000000000001000001000000000000010100000000000000000010000000010
10000000000000000000000000000100000000000010000000000000001000000000010000001000000000000000000001000000000000000000000010000000
00000000000000000010000000010000001000000000000000100001000000000000000000000000000000000000000000000000010000001000000000000000
00000000000000000000000000000000000000000100000010000000000100000000000000000000000000110000000000000000000000000000000000000000
00000000110000000000000000000010000000100000000000000000000000000000000000000000010000001000000000000001000000000000000000001100
00000000000000000000000000000000000000000000000000000000000000000010000000000000000000010000000000000010010000001000000000001000
00000000000000100000000000100010000000001000000000001000000100000000000100000000000000000000000000000000000000000000100000000000
00000010000000000000000000000000100000000100110000000000000000010001000010000000100000000000000000000000001010000000000000000000
00000000000010000000000000000000000000000010000000000000000000100000000000000000000000100000000000000000000000000010110001110000
00000000000000000000001000000000000000000000000000000000000000100000000000000000000000000000001000000000000000000000000000000000
00000000000000000000010000001000000000000000000000000000001000000000000000001001000000000000010000100000000000100000000000000000
00000000000000000000000000000001001000000000000100000010100000000001000100000000100000000000000000001000001000000000000000000000
00011000000000000000000000000000000000000010000000000000000000000000000000100010001000000000000000000000000000000000000000000000
00000100000100000000000000000000010000000000000010100000000000000000000000000000000000000000000000100000000000000010000000000000
00000000000000000010000000000100100000000000000000000000000000000000000000000000000100000100000000100000000000000000000000000000
00000000000000100000000000000100000000000000100001000001000000000000000000000000010010000000000000000000000000010000000000000000
10000010000000000000001000000000000010000000000000000000000100000000000000010000000000100000000000100001000000001000000000000000
00000000000001000000000000110000000000000000000100000000100000000000000000000000000000000000000100000000000010000010000000000000
00000100000000001010000000000000010000000000000000000000000100000000000000000000000000000000000000000000000000000000000000010000
00000000000000000000000100000000010000000001000000001000000100000100000100000000000100000000000010010000001000010000001000000000
10100000011000000001000000100000000000000000000000000000000000000000000000100000000000000000001000000000000000000000000000000000
00000000000100000000000001000011000001000000000000000010010000000000000000000000000000000000000011010010000000000000000000000000
00000000010000100000000100000000000000000000100000000000000010000000000000000000000000000000000000000000000000000100000000000000
10001000000000000000000000000000000000000001000000000100000000000000000010000000010000000001000000000000000000000000000100000000
00000000000000000000000000001000000000000000000000100000000000000000000000100010000000000000000000000100100000100000000000000110
00010010000000000000000000000000010000000001000000000000000110000000001000000000000000001000001010000000000000000000000000001000
10100001000000001000000000000000000000010000100000000000010000000000000010000000000000000000100000000000100100000000000000000000
00000000000100000000000000000000000000100010100010000000000000000000000000000010100000000000000000000000000000000000100000000000
00000000010000000010000000000000000000000000000001000000000010000000010000000000000000000000100000000000000000000000000010000000
00000000000000010001000000000000000000000000000000000010100000100000001000000000000000000000000000000000000000000000100000000000
00000000000001000000100010000000000000010000000000000000000000000000000000000000100000000000010000000000001000010000000000000000
00000000110000000000000000000001000101000000000000000000000000000000000000000000000000000000000000000000000000000000100000000000
00000000010000000001000000010000001000110000000000100000000000000000000000000000000000001000000001000100000000000000000100100010
00000000000000000001000000000000000000000000000000000000000000000001000000000001001000000100000000000000000010000000000001101000
00000000000000000000000000000000000000000000000000011000000000000000000000000000100000000000000000000000000000010011000000000000
00000000000000000000000100000100000000000000000000000010000000001001000000010001000000000000000000000000000011000000000000000001
00000000000000010000000001000000000000010000000000000000000000001000000000000000000000000000000000000010100000000000000000000000
00000000000000000000000000010000000000001000000000001000100100001000000000000000010001000000000000000000000000000100000001000000
00001000000000100000000001000000000010000000100000000100000000010000000000000000000000000000000000000010000000000000000000000000
00000000001000000000000000000000000000000000001000001000000000000000000000001000000000000000000000100000100010000000000000000010
00000000000000000010000000000001000000000000001001010000000000000000000000000000000000000000000000100000000000000000001010000000
00001000000000000000000000000000000100000000000000100000100000000000000000000100000000000001010001000000010000000000000000000100
00000000000000000000000100000000010000000100000100000000000000000001000010000000000000000000000000000000101010010000000000000000
00010000000010100000000000010000000000000000000000000000000000001000000000000010000000000000010000000000000000000000010000000000
00000000000000000000000100000100000000000100000001000100000000000000000000000000000000000000000000000000000010000000000000000000
00001000000000000000000000000000010000100000000000000000001010000000000000000000000000100000001000000000000100000000000010000000
00000000000001000000001000000000000000000000000000000000010000000100000000000000000000000000000000000010000000000000000000001000
00010000000000010010000000001011000001000000000001000000000001000000000000000000001000000000001000000000000000000000000000000000
00000000000000000000000000000000001001001000000000000000010000000000000000000000000000000010000000000000000010000000000000000000
00000000010100000000000000000000000000000000000000000000000100000000000000000000000000000000000000000000000001000100000000000000
00000000000000000000110000000000000000000100000000000000000000011000000010000000000000001100000000010000000000000000000000000000
00000000000000000001000000000000000000000000000000100000000000100100000000000000010000100000000000000000000000000000010000000000
00001010000010000000000000000000000000000000000111000001000000100001000000000000000000000000001000001000000000010001000000000000
00000010000000000000000000000001000000000000000000000000001000010000000000000000000010000000000100000000000000000000000000000000
10101000000000000100000000000000000000000000000000000000000000000000000000001000000000000000000100000000001000000000000001000010
00000000000000000001000100000000000000000000010100000010000000001000000000000000000000000000000000001000010000000001000000010000
00000000000000000000000000000000000000000000000000000000000000000000000100100000000000000000000001000000000000000010000000001000
00000010010101000000000000000000000000001000000000000000000000000000000000100100000000000100000000000000000000000000000000000000
00100100000000000000000000000000000001000100000000000000000000000000000000000000010000000100000000000000000000000000000000000001
00000001000000000010000100000001000000000000000000000000000000000000100000000000000000000100001000000000100000000000000000000000
00000000000000000001000000000000000100100000000000000010000000100000000000101000010001001000100000000000000000010000010000000000
00000100001000000000000000000000000000000000000000000000000000000000000000010010000000000011000000000010000000000100000000000000
01000000000000000000000010000000100010000000000000000000000000000000110010000000000000000000000000010000000000000000110000000000
00000001000000000000000000001000000000000000000100000000000000000000000001000000000000000001000000000000000000000000000000000000
00010000000011000000001000000000000000000000000000010000000000000010000010000000000000000000000000000000000000000000100000000000
01000000000000000000000000000000000000000000000000000100000000000000010000000000000000000000000000000100000000000000000000000000
00000000000000000000000010000000000010010000000000000001000000000000000001000000000000000000000000000001001000000000000000000010
00010000000000000000001000000000000000000000010100000000000000000000000000000000000000000000000000000000000001000000000000000000
00010000100000000001000100000000000000010010001000000000000000000000000000000000001000000000000000100000000001000000000000000000
00000000000000001000000000010000000100000000000001000000000000010000001010000000000000010101000000000000000001000100100000000000
10000000000010000000000010000000000000000000010000000000000100000000000000000000100000000000000000100000001000000001000000000000
00000000000000000000000000100001000000000000000000000000000000000000000000000000000000000000000000000000000100000000100000000000
00000001000000000000000000010000000000000000000000000000000000000100000000000000000000000000000000000000000000001000000000000000
00000000000000000000000000000000000000000000000001000000000000000000000010000000000000000000000000000100100010000010001000000000
00001000000000010000100000001000000000000000000000000000010000010000000000000000000000000000000100000000010000000000000000000010
00000000000000010100000000000000000000000000000000000000000000000000000000000000010000000000000000000000000000001000000000000000
00000000000000001000000000000000000001000000100000000000000000100000000010000000000000000000000000100000000000000000010000000000
00000010000000000000000000100000000000000000010000000000000000100000011100000000010000000000000100000000000010000000000001001100
00000001000000000000000000000000000000000000000000000000000010000000000001000000000000000001001000000000000000000000000100000000
00000000000000000000000000000000000100000000000000000100000000000000000001010000010000000010000000000100001000000000000001000000
00000000000000000000000000000000000000101000000000000000000000000000000010000000000000000000000000000000000000000000000000001000
00000000000000000000001000000000000000000010000000000101000000000000000000000000000000000000000000000000000000000100000000010000
00000000000000000000010000000000100001000000000000000000010100001000000100000000000000000010000100000000000010000000010001000000
00000000000000000000000000000100000000000000000000000000000000000110000000000000000000100100001000000001000000000000000000000000
00000000000010000000000000000001010001000000000000000000000000000000000000000000000000000000000000000000000000000000000000000110
00000000000001000000000000000000010000000000100000000100000000000000100000000000000000000000000000000000010000001100000000000000
00000000000010000000001001101000000000000000000000011000000000000000000000000000101000001000000000001000000000000100000000000000
00000000000000000000000000000001010000000000000000000000000000100000000000100000000000000000000000000000000010000000000000000000
00000000000000000000000100000000000000000000000000000000000000001001000000000000000000000000000000100000000000000000000000000000
00110000000000000000000000000000000010000000100000000000000000000000000000000100000001000001000000000000001000000000000000000100
00000010000000000100000000000000010000000000000010100000001000000000000001000000000000000000000000000000000000000000001100100001
00000000000000001000000000001000000000000000000000000000000000000000000000000010000000000000000100000000000000001100000000000000
00000000000000000000000000000000000010100000000010010010000000000000000100000000000001000000000000000000000000000000100000000000
00000000000000100100000000000000000000000000000000000100000000000001000000000000000000100000000001000000000000001000000110000010
00000000000000000001000100000001000000000010000000000010000000000010000000000010001000000001000000000100000000000000000000000000
00000000000000000000000000000000000000100000000000000000010000000000000000000000000100000000000000000000000000000000000000000000
00000000000000000001000000000100000000000000010100010010100010000000000000000000000001000100001000010000000000000000000000000000
00001000000000000000000000000000000000000000000100000000000001000000000000000001110000000000000000000000000000100000000000000000
00000000000000000000001000000000000010000000000000000000000000000000000000000000000000000000000000000000000001000001000000000000
10000000000100000000000000010001000000000010001000000010000000001000000010000000000000000000000000000000000000000001000000000100
00000000010000100100000000001000000000000000000000000000000000000000000000000000000010010000000001000001010000000000000110000000
00110000000000000000000000000000001000000000000001000000000001000000000001000000010000000000010001100001000000000000000000000000
00000000000100000000100001000100000000000000001000000000000000000000100000000000000001000000000000000000000000000000000000000000
00000000000000000000000000000000000000000000001000000000000000001001000000000000001000000000000000000000000000110000000010000010
00001001000000000010100000000000000000010101000000000000000000000000000000101000010100000000000000000000100000000000010000000100
00000000000010000000100000000000000000000000000000000001000000010000000010100000000000001000001000000000000000000000100000000000
10000010000000000000000000000001000000000000000000001000000000000000000000000000000001000000000000000010000000000000000000000000
00000000000000000000000000000000000100000000100000000000000000000000000000000000000000000010000000000010010000001000000000100000
00000000000101000000000000000000000000001000000000001000010000000000000000000000000000000000000000000000010000001001000000000100
00000000000000000000100000000000000000000000010001000000000000000010000000000000000000000101001000000000000000000000000000000000
00000000000000000000100000000000000000000000110000000000000000000000000000000000000000000000000000000010000000000000000100000000
01000000010000000000100000000010000000000000000000000000000000000001000000000000000000000000010000000000000000000000000000000000
00000000000000001100000000000000000001000000010000000000001000000000100000000000000000000100100000000000000000000000000000000000
00000000010000001000000000000000000010000000000000000100000000000000000000000000000000000100000010000100000000010000100010000000
00100000000010000000000000000000000010000000100000010000000000000010000000000010000000100000000010000000010000000001000000000000
00000000001000000000000000000000000000000000000100000000000000000000001000000000000000000000000000000010000000000000000000000000
