128
00010001100000010011101001110110111100111110111100100000001111001110010010100111100011110101111100101000000010000101000111001000
00110011100101001110011100001010000010010000101100110000110100110010101111000101011010011001011101110011001100111011101110011001
01011101100000100011001110001111100111111111111111110000110111001010001011101111111001011010010011100111101001111111010011010111
11100010111011011011100100001001111000100111100101001100001110111100001110111011001000011100101010001100000001111011100011001101
00100110100010010100010101111010110100100100101110000001011111000100111011111001111011010101101000011110001000111100100110100010
00101010011101101011110000011110111011010001100111010110001010101001001101100010111011101001011011101001110001110000001111011011
01011100111110010101000011100111111001000011101011010011100000001100001010101011001100110111100100000010101100111011100001001101
11100000111001010100101001100111011100000010011011101000001011000011101110111011111010001000101011000010101001101101011100011010
11111011000111011100001110010000110101110110110101111001000110011011010000110111100001010000001000001111110101000110010110101011
00010111000101000111001011111101111001110010101001100011101101000011011001000011011001100001010100111111110000011001110010011100
00010111000011001111110001000010001110010111001110011000011000111010000000101010100111101111101000011010011101000101011010010001
01000110110000110000101001010110001011000101011010001000011011010110100101101101000000100010110000011100001111110001100101011000
00011010101001000000100001000010010000110001001101100111101001011110001100100100100001101010101110100110011000110011101100110111
01010101111010100101011100100011100111111001000101110100010101000111010111111100111111010110010110111111111010101100001011000001
00100100000101001110001001101011011000010000001111110010000101100001101110011110111001001010011010001101101110100011110000011001
10011011100100000110110101111101101111000001101010110011110111111011100111000001011000101101000000000111110100100010101001111011
01010100101000100001011100111000111101111110110101010001110000001101101000001100000110010001110101101000100110010011100110010100
01001011111001110000101101101001001100011011010010100001001011011001100111000101001111010111011000011100001101000100101101010101
11110100011000110000010000100100000010111110111101110001111000111011010110001010110011110010011010111011110010001000110000101010
10110110011001001000101011101010001110110011101111111001001101100111000010100101010001000101010011110010010000011000011011101101
10010101001110010101011011010001010110000100100001010100000100101001010001001011111000111101010001010101010100111110000111110101
01001100001001011010101010111101101110000001111000001010000101100001001011100100010010110010110101010011000100001011110010101001
11100001110101101101110110111110011010000100111110001011010101100110101101100011101111010100011011110011110111110101011001100101
01111000100001011100001000010100101010000001101110001011100101100111010011100011110101111001011100000101111101111101010100101000
00100010110000000001111001101010001100100110011101111000001100001110100111100010000011011100100111000001111111111000000110110110
10001011011110110101100010011001110101101110001101010011111100011000111111001110110100110011111101010001011000100100110101001100
10001011010001111111011010011011110000011101100000011100001000110000111100000000100111011111110000000011000000110101000001101110
10001100110100011000111101101010100110010110110111100001101001100100001110100111111000000110111110111000010100101100001010001101
01111100010000111101011011110110111111111111011111011011100000111000011100011110111011101010001110100000011101011111010111100011
10100111010100010010011100001010010001110001101011010010101101111010000110111100101110101010110101011101001001110110001101100010
11101111001111100001001010111101011101110000011010010111101010110000111010010011000010100101110001101001111100011010100101000000
00110011010001110100110001100010111100000010000001000010100111101110011010010000011110011010000011010101000001101101010110100001
10111110110001011000010101111001010011000010011111101011110100111010100101001001010110000011001001001000011101100010001010111101
10011111110010101000101001101111100100110110111001111100100010000011100100110000011100111101100111010010101111001101011101111001
10010111011100111101011110001011000111110111001001101111101110001110100110110010001000000110100001010111001000110001111110001100
10101001101001011101110011011011011000001111011110100111100110100111111111111000100011000011010001101101101001011001000011001100
01100100001101010011111100011000101000111010110011011001001111000110110011110001100100110100101011101101000100011010110001001110
00100110110101011000000001001110101000110010101010100100100111001100001010010101011101001110101111001000000000000101101010011011
10111000110011001011000011001110011011011001111011010010011101100001010001000100001101110010000010011101000111101111011101010100
11100100111011101111000000111110011011100101100010000010111011000000110110010010011001110010111100000110000101101110011010100101
10100000000001001110000001101000000110100101100010110100011110100011101110110100111010101011111110110100001001011001100101110000
10111000101100001010101011111000011100011000100010000110010000110100000011001011110010010100001111001000010000101110001010000001
10110011111000001111000011011001111111000000110101110111000111111110110100110000011001011100011111000011111110001111010100001000
00110110001111010101010100101100001100111000101011001011101000000000111111110111110110000010101101110000001101011110011010111010
11111110110000011011111100110100010011111111001000110110001000101010010111000000011100000111011100000111010000000101101111010100
10100001100100001110011010011010110110100010000100101000001000101100000100001010011110010000010101011101011111100011110101010101
11101011011110110011011111001110111101100001100011100001101110111001000010100010011010011101100101000101101100100101110111011111
11111100101011101011001111011000100100000010010000111000010010001010010011010100111101111110011010100100111110110011011000011001
00101111001100110101001100011110100111111101001001111111110110011110001100010001100111010011011101001100011011101110001110100110
00110111110011101011100011011101111010100011001010101101000001111010110101101011101111011000011000001111011110000001001010000110
11100001110011110111000010010000111101001010111111001110000111111111100110111110111111111010111001011001001000001101111110111111
01100110101001111011100011101110010010101010100110000101001100100100110110101101000011100000000001001011101110010000000101100001
00010001101100000001011110101000111010000001010111100011010010101110110010011010010011000010000100000000111111111011001100110010
00010100000011000000100000100010011101001110100011110011001011000110000000111001101100010111111111011111001110111110110000001000
00000110010010110000011101001111101100110111100010101101001011001000010011100011000100000110110101100010001000111001110001111001
00001010110010011111001101011010101110000011001011011110001101000100011100011111101000011010101111101010100110111100001101001000
01100010010010011010000101011111111101010001001010000000001001001110000011111000110111110111111110011111010010001110011001000001
01101000001101011010001001000000100000111100000110001000000010000110000101110010111011011011001000001001001101010111010000010110
10011101011110000111000011110110001010111001111000010111100111001110110010010000101110001111010101100000001101010100010111111010
11111000110001110001111111000101101111101010001010110001001011100000110000000000110010100110010101101101010100001110101100001011
10111101100100010100000000000011011111011010001110101110011100101010011100101001110111100011111011000011001000111000000011010001
10101001010111110101011100010101000011110010000001100111101100001100001100111001000010110101100101100110011111010011001011000101
01010100001000110011111100111111100100101110111001111000000110011010110010010111101101001110010001100111011000100111010110010111
01010000101110010110000001101110100000000110001011100000000000101101000111110101011111001111010111110111110101100111011000110001
10110110101010011110100011001101101001000010111111101010101011110101001110110111110000110000110100111111110111101100111011001101
10011010000111001001001110010001001111000110010010111101111001011010100110001001000000000101100001011010001110101101110010100011
11100001111111010011001110000101111110001010100111101100111010100101111101111011111011010110010101011010011111111011110000110000
00000101110001111111110100000000010100101000001000100000000000011010011111000001111110100011111100011100010000110010100010010101
01001001000100111100001011100010111110011011000001111000001100100110001111101110101100111111000111011111000110111010110010111101
10001000110001000010100101101011000110110011100101011011001110100011001000001110000010110001110110111000001011101011010001101101
01111111010010101000011001111011000101001001000010000001000011001011110011000011010101101011111011010010110111000100101111110000
01010101000111110110001011111100111100011011110011110001010011011111100000110100011011101101111001011111001101100110110000010100
11111011000001110111010111010111001111011101101100111010101000111101101000111101110110001110010101100111010111010011100011101110
01101100010101010100111111000000100110100101100101000010110000010011101000010000111000001001110100000001100000101110001000001111
10111111101111000001011110010100011110001011001001110110110011011010100110000011010001001110001100111010111100011011101111101001
00011001100001100000000000001111011111011011000110101101111001111010000111001010010011101110110100011111111010000001110010011101
00111011001101101010100001001100100100000100010001111101100011000110110010010110000100010010100011111011011110001111010101010100
11100000100111101101010001011100000001101001000100110001000000111000110110001001000000101011110001011001000011100101001100101110
10110111111000100010101111011010001000010101011001101011010000101010111000111001011010011000110111100010000000001001110111111000
11111011110100010101101100010010100011000101000011010111000011111111001010100110001100001111100110100100011110001100101001001010
10101101101011100010101101111100000110001101000111100101111110101011100011000000011001111010101110101011001100110000000010111101
01101101010001110011110101011001110001011111111100101000110110011011001111110010101011110001101000010110000011110110000010010011
01111111010001110100101000011101011001111010111101100101011000110011100101000011110100010001100100000110110101101101110000010110
00000010001001001100001101100101110011100001110111100110101010110001101010001001001001001000000100101010001001100011101001000001
11001101001001001110011010101111100100001101011011111000111111010011010110010010010001111001010100001110000010010101111111111111
10101100111011100111001110101000000101110010000111111000110010110010001100110000110110010101111010111000010001001111000111111110
10000110011110010010110101001110010010111000000100110000100111001001111100010100110010010111000111100100101010111010100011001100
11111010100001001110111111100001010010110110011111100101110001001010110000001010111011100001011010100011011111101110111110100111
01110101001010110000100110101101010001001010001101100001011000110000101111110111100110000010110001111111010100011111111101101000
10011010001001010101101010110010011011000110101100000110101101110110100110110001000001100000100100001000011010100000010100010001
00100010001111100110010001111101101101111001100110101111111110110011101010111101100000101001010100111010001000110011000010101010
11001110011000011101100101100010110100001000101010000100111011010101111101000101011011110010011011010101000000000101010000100101
10011011001110001000010011110110011011011001001000100111100011001101011101011111111001001100011000011111001010010011010010111111
11100100010101101111111101110110000100011010110111100110101110111011011111010110000011011011100001111111000010110101110110000000
11011101101010100110001101011000100011011111100111100101110010000001001100100000110001010001100100010011111101011010000000100101
11000010010011001000010111011100010001011111111010001111101101011011110011110011101110100110001011101000100000010111110010011110
00110101000011100011001010011001010011101110000100000101100010010000111000001011100001110001000100110010010010100101011101010000
01100101000000001001111011000111111111000111011010110111001111110110101110001110000000101001010100001000101001111010001000001010
11100100010011001011001000011010000110001001000100000011001101111000010010101011100101111010010110001001011110110101100010011011
01001000011101000111111001010101011000101001010000100100100000011111111100111100010001001011111010001011100000000101100110001110
10011100111101101110000000010110100111100100010011110101110100001111110100111100100111001110110101110001000000001101100010100100
00111000110111110100100100000101001110111000111111000100100101111001100110010001011010101001110000000000111000001111101000011011
01101011111011010011011000100000011000010010100001010111100011111110101110111010111110011010111010010001110101011001011110000101
01100100110001110010111111100111001110100010111001110100110110111000100111011100100000011001111000111010000110011011111010010001
00100111110001111010001110000010010100000010001100011001000000011000001001110000001000100000001101010110001101010111011001000001
00000100111011010011101111011010100000000110110111001000100101111011001010111001001001011100001010100110001001001100001100110100
01101011001111100100000111001110111100001011011111111110011011100110010100111001100100110110101001100100110001101111011111110101
01000010101100111100111110011010110010110011011101011101011101011110101110101001101000011000001000100011100001101101001110111010
10000000000101101010001010000000010000100010010111011101100001001110111010011101010010110100110010100001000001001110100101010010
00110101101100000100001110001101110100111001010010001000011001011010011110000100011101010000001001000010111110100011101010101110
01111111000111110000101111110101101000110100011110001111000010111111110101000100111100110110010011100000001101011101111111001101
01111110010110001001101110101110001110001001000100011111011011000011100010100000110010101010111101100011100000101110101110011000
01111011010001000011110110011011010110111111000010101111100110001110110001101011001001111000001001001111011110110111001001110101
10101001101001000100101101111101010001110111101010100101111100111100001101001101011011011001010110111100111110111011011000000100
01110010100010111000110000001110100010110111010110001100110101110011110111101000010101111010101101000101101011011101101000000110
11110011011110101000011100101001011101101010111101101010010001110110010010111110001111001011110110111111101101101110010100100100
01011010010110111110010001000010001011001000111000100110000100001111101110110011001110111000010100111101000011110010010011110011
00100001111000100011011101001001011010110011011100100110111000111110110100011010001010011101110110000011101000100101100000101110
01000101001011010101001000010100111001110101100111101001100101011000001001100101000110011000000011000111111101111110000101110101
11001101100110001100100111001111011000101010111010111001001100100000001000101110000011011100010010010010011110110001001010101101
11111100111001001001110010011001101101010101101011100000001011101101101010110010110011110010110100111011001101110000100101111000
10110110000101010101101001101110010110101000111000010011101011001000011010101011000111101000000010000000101010101000101010101000
00001000100010010011111110101101110000011001000010111010001000010110111010100110100011011011101000001000011101001001111111001010
01100101011110111100100010000000110001101001111100101010011010110011101100011010111011000100100110100101011110011000101010001100
11010111110100110011010101110000111111000011001100100111001100001000110011110111100011101010100101110100000101110000010111110011
00110010010010001101101011110000101110110000111011100000010001101001110111011100101011110001101100011010011001101111011100010000
00101101100010010010000010101100000011000001001011101000011100100100000011000101011011010010100101110100000111000010110000101001
01110110101011110101111000011001110001010100011100110010100111111101110001110000110110010101101000100111101000101000101100001010
