16
0111111111111011
1010111111010101
1101111101101101
1010111111111111
1111011111111111
1111101001011101
1111110111111001
1111101000101011
1101101000111101
1111111000101101
1011101111011101
1101111010101101
1011111111110111
0111110011111011
1001100100001101
1111111111111110
