16
0111011111011001
1001110111111111
1001111111111011
1110111111111111
0111001111110011
1111001101110011
1011110111111111
1111111011111111
1111101101111111
1111111110111111
0111111111001011
1111111111001011
1111001111110111
0101001111001011
0111111111111101
1111111111111110
