16
0111010011111101
1001111101110111
1000010100101011
1100100101111110
0101001110111010
1110000101101011
0100100011101010
0111110010101111
1000101100010110
1101011000010010
1111111100000010
1101100011001011
1011111100010101
1101000110001010
0111111111110100
1110010100011000
