16
0010000101000101
0010001000110101
1100100100001010
0000000100100101
0010010010100000
0000100010000010
0100000000010101
1011000000110010
0000110001101000
1000000010000010
0101100110011000
0100001100101100
0010000010110011
1101001000010000
0010010101001000
1101001000001000
