16
0001010000000100
0010000100000000
0100000100000000
1000000001100000
0000001000001001
1000000010000000
0000100000000000
0110000001010001
0000010000000000
0001000100100000
0001000001000000
0000000100000000
0000100000000010
1000000000000011
0000000000001100
0000100100000100
