16
0111111101111111
1011110111111101
1101111111111111
1110111111111111
1111011111111111
1111100111111101
1011100111111101
1111111011111111
0111111100111111
1111111100111111
1111111111011111
1111111111101111
1111111111110111
1111111111111011
1011100111111100
1111111111111100
