16
0001001111010110
0011100111011001
0100101101010010
1100101011010111
0111001111110110
0000000000000011
1011100110001011
1110101010110000
1101101100000000
1111100000011110
0000100100010011
1111100101101111
0100001001010111
1001100001011000
1011111001111001
0101011000111010
