256
0001100000100110010100000100000010000010100010111000000000000100000100001100001010000000000000000000010000010100000010000010000100000110001000001000000010010000001100001001001000010001100000100001000010000011100010000000001000011000000100000000011100010000
0001000000000000010101100000001010000000100000110000000000101111010001000001000100001000100110000000000001000000100000011010001000010000000001010001001001110011000001000000000010000000000010110000101000000100010000100110000000000000010110011000000010010100
0000101011111100101101111100000000100000000001100000101000011000000100001010000000010001000001100110100000000000000000001100010000010000110001000101010001000000100001000001110001100000010000000011100010010010001000110000010000010000000000000010000010010000
1100000010000101100000010100001000011010000000000100101000000001100000000001100110001000010000000010100100101010000010000010000100001000100010000110000000010000010000011011010100000001100100010100011001000100000000101000000001000010001000010010010010000010
1010000001000000000010100100001001000000011000000000000001000000000000010000000000001100011001011100011001000001000110000000000001000010010000011000101000001000010011011001000000011010001000000000000000000001001101011100001000000100010001000000000000010110
0000001000000000001000000001100010011001010000001010000000100000010000000010100010001000010000011010001100010000100000100000000010000010000010000000010000110101100100000000000001011000110001001010001010000000010100000110000001001110000001000000000000100101
0010010000000100001000011001001001100011000000100000000001100000110010010001000000010000000000010001100000010000101010001010100000000010101100100010010000010011010110000000100000100100011010010010010100100101000101000010000100000011100001000010001001001000
0000000011100000100000100000000000000000100101100000010000100001100011011000001000010000010011001000000000000100000100001010010000100000000010001110000010000000011111000000000010001000100000010000000000000000000100001000100000100000011000001100100111110000
0011000100100100000010000010000000000000100000010010000000000000110010010010000010100000110000011010000010000010000000100010111000000001001000000100000001000100001011010100000000010000010000000100111101001000101010000001000001000000101001000000010000000100
0010100100000000000011000001100001101110001010010101101000000000001000000000111011100000000000000000010110000000001100000010100100100010111000110100000010001000111001010010101010100000000010000101001000001110001001010000010010100001001010001001100100100100
1010000110001000001011010000110000010000000000000110000000110100000001000010010100000001000100010000011100000000000000000000100000001000001000001000110000010000010001000011100101100001001000110000100100001000000000000110100010000000000100000000000010000100
0010000000000010000100000100000000011000010110001111000100001011011000000110001010111011011010001110000100000001100011010010000101000100001010000101000000000011000010001110100000000010100010110000110001000000010000100100011100011100010100011000100100100010
0010000000100101011001000000000101011000100100010000110000010100000000000000111101010001000000010000000000111000100000110010001010100000000001001001000000000011000000000000001010000010000000000001000000000001000100011010000000000101000011100000100010000000
1011001010001001100001100001000010001010000100000000000010001000000001000000000011010010000000001100101010000010110000000000000101000110100100100001001011000001000001000010001001001100010000000111001000100001000010010010100000001101001100001011011000000000
1000000000010001000101000000001001000001010000100010000100000001001010010000000100100010000010010001100000010111100100000000000000010101100000001011110010101000111001011111101000011011000000000110000000010010000010000110001000100100000111001101100001010000
0001000000001110111001010000010010000000100010000000011001001000000011000000001001000001011001100010000100010001010010000000001101000001101000000000000000111000100010001000111010010000000000100101000100001100000000010000001110001001010000000100000001011000
0011000100000101010101101110010101100001100010100100011100100000000001000000000000000011000101001000000000011000100000010010001000010000000010101110110011000001110000010001001001100001000000001000000000000000100000000100000000000000111000001001000010001000
1100000000001001100000000001001011100101111000001100100110110100000100111000011000100001010010010000000001010000100000100111000011000000000010000001001010001100000001100010011001100011110000011100000110010000100000110000000010100000000000010100000011001010
0010011000101001000111101110010000001101000000101010110000010111000001000000000010000011000000001001000000101000000110000000001000110000000001001000001000000010000011101000000001000000000000001100001000000001100001101000001100000110000110001000001000000000
1110000000010010101000001101100001000011010001000000010000010010110100000000001001000100010100000101001100110010010000000101000000001000010000000010000000000000001000000101000010110000011001101100100000010001000000100100000100000001100000000001000010001100
0000100011100000001000000111010000000010000000000000000000101100100000000010010000000110001001000000100010000010001001000000100101010010000110000000001001000001100100000000110000000001111011010000010001000010000100100010000000000100001000011000000001010100
0110000001101111101000100101010000111011001000111101000000100111000000100010010100100001101000000000010011010000000000100000101100100000000100000000000000000000100001101000010010010000010000000000110100000000000001001011001000000110000000000000010101001101
0110100100000100101001000000000000010100001000001000000001001000100010000000011101100001000000100000000000000110010000100011110000001000000010000110001000000101100000001000000000000110001101000000000001000000100010001010100100100000000010111000010000110001
0011001000100001000000000101000000010100100000110001000101110110000000101000001100000000000001010100000001000010100000000000000100100000100101010000010100000000100010111000110100100101001010100010001000000001000010000000100000000000000000000000000010010010
0010001000000000101100000000000000001000000100000000000101000100000100010000011001010010100100000000100000000000000100001010011011100001010001110001000010001000110000000000011011000000000001110000000110000000010010000000010010000000100000110001000001011100
1011100000010000101111010000001100111010000101000000100000100100011001010100000011101110010000001001000000101010000001100000000000001000000000000001100000000000000010011000000010000010001110000010000101000100000100100110001000001000001010100011001100000000
0000000010000000101010000000101110100110000100100000000001100001010000010011000000101001000011000000101110001001000001010000000110100001011110010001010001000001100011100001000000110000000100000001000000100010000001000100000000010000010000000010001000000100
0000011001000100010111010000100100010011000110000001000001000000011001001101101000100000001010010000000110101000100011001100010100000001100100001000010110010000010010010111000000000000001011000000000000000000011100001000001101001011011100001000010000110000
0000010001100000000100000011000110000010100000000100010010001101001100000001010001001100001000011100000000000011100000000000101100001001011101000000011010001001100001000000100011001100001000000001111011000001100010100000110000100101000000000000001000000000
0000000000100001101011000000001101000100100001001000000101100101010110000100000000000000000001101010000101110001111100010000100010000100000100001000000000000010000000010101000001111001001001110100011010100000000000000010000000000000100000000100000000011000
0101101000000010010000000110010000000100001000001010100000001001100000010101001000000001000100000001000000100000000000000000000010100000000010000010100000010011001000001000100010001010001001110000010010000101000011000001001111000101001100000010000101001101
0000000000001000100000000111110000001010011000010000010001000001010000100001000100000000000000011000110000000000000001000001000100000000010010100000000111000000110001100000001100000000100100000011110000010000100000010010100000000001100000110000001010010100
1100010000000101010000000010100000010001011100000000000000110001101000000000000011000110000000100000001010010000000101011000010000001010001000010000000000100101000000100010101010000010000000000000001011011000100000000000001100110000001000000000000110010110
0000101001001010110100000000010000000000001000000000000001000001100001010100010100010111000010100000100001100100010000000000000000101010000010000000001111000101000100000010100010000010000110100000000110000000000100011001000001100111000000000000000000010000
0010001001000000110001000110000000010010110001000100000100000010010000110000100000000000000001011000001010000000000110010100100000001101101000011000000000010001000001000000101010110010000000100100100001000001000101011100000110000000001010100010000000111010
0001010000111000000001110101000010100010000000100010100100101010001100000000110000000000001010101010000011010000111000011000010101000000000001000101010110010010100110011010011010100000100100010001000111000011000101001011110000100001001000000000110001000010
0001010001011100001001001100000100000100000000000001000001100001100000001100001000000000000010110110100000000000001000000000000000001100001000000000010000001000000010110011100011000000000110110001000000000100000011010010110000001000000001000010000010100000
0000000001000000011000110010011000001000000000000110000000100000000110010000000100000000001010000100010000001101000000000010110000010010001010000100000000000000010101001000000001100010000010010010000000001100100000000100100000001000000100000000000000010000
1001001001000100000111000111100100110001011000001110100000100011001000011100001000000000001010100000000011000000000011000001010010000001010001100110011001001010010010001000000000011110001000010011100111000010100001011110000010100010001010100000001110000001
0000011000000010111101000001000010000010000000100000110110010000000010000011010000101010010001100000100111100000000001000001100110000000000010010000001000000001100000001111110010001001101100001000111100100010000000100011000001010001000101000001001000000000
1100000110001001110000010000110000100000000000001000000000000100010011010000000000001111100000100111000100010100000100100001000010001010000110000100000001100000101001010000000100000000001010000001010000000100111001011000001100000111000000010010000110000000
0000110000010010010100000000000110100010000010101010000010000001000111011000000000000001000110010000000101111000000100001000000000100100011110011101000000000000010010001100100000110010100000010100000110001000011000000100100000101001011000000100000001000001
0000100001000000010001100000001111000010000001000110100000100011001000000100000001101001000010000000010000000000100011000000000000100000000010100001010000000001000000100000000000000011010001000111000100000010100001000000000011000010000000001011100000000010
0000000100011100000000001111000010000000000000100010001000000001010000000000110010100010000001101001000010000000000000001010001010000100000000010000010000100000001001000000000001001001001010001000000000000000000000100010000100000000011000110000000110000001
1000000001010001100000000001000000000000010001100110000000001100100010000001001101011011000000000001000100010011000000010010101010100100110111001000000001001001100000110000110010011110100000000100001001110001010110010000010101000101000100100000110000011100
0010000100000000000100000100010000100000001010100000000100011010110000001001000000001010101111000010000000100000000111100000000010000100110100000001000011001100011000010001010000000000100100000000100000110001100000010100000010100000011001000000100010000000
1110001100000010101001010010000000010001010111010000001010010001000100000000000011101110110000000001100000001100101010001010000001001111000100000100011101010100000010001010001100000010000111000000000110010001001000101000010000001000010101101101001000000001
1100000011001000000001010000000100000000000000100000100000010100000001000000010100000000100001000110000110000001000000000000001001000010000100001000000000011000000001000001000100000101000010101001000010100100000110000001001000100110000000000000000001100100
1000010000010000011001100000011000000010110000000000000000111101100100101100000000011000110001001000010000001100000100001100000001101001110001111010001001000000010010010000000010001000100001000001010001000101000000000100011010001000100001100010000000000010
0001000001110000110001000000100000100110001010000000000100000000000000001100100110000010000011011010011010110001000000100000000000011010000100010111011000000001100011010000110100000100110100010001101000001110000100010001010111100000000001110000000010000001
0000010010110010001000000000001000010110011110000001100010000000000101000100000000001111001100100000010010100100000100010101100000000000100010000001100101000100101100010010010010010000011100000000100000100001010001000001000000000100001010000000001001001011
0000000001010000000001010001000000001000000000000010101110000000000001000000000010000110011001001010101010001100100100000000110011000010001100001010000100010000010010000100100011010000000000111010000000100011101000110100010000000000011000000000001100101001
0011000001001000011000000100001000010011001000010011011011011000000010100000010000001000000000001001100111010110010000001100000100001011000001000000001010110000000111010100100001000110001011000000010000000110100100000000001001000000100001000010000100000000
0000000100001001101100000000100100000001000000000000101100000001000000000100100100010110001000100100001100001000000000000100101101100001000000000001001001110000000000000001000001000000100110100111000101010001001110000000100010110001010011100110000000010100
0011000001000001100000000000000000000000000100100001110100000101000010000010110010000001000010101001011100000000001000010000010011001110100000001101000010001001000000000010000010000000000000000011010001000001010001001100001000111011101111000100001000000000
0000000000010010110000011000010000110001000001000101011001110010000001000000110011011000100111000000000001100001000001000001000000010001001010010001100000101010101010010000100000110010100100000000000000000001000001000100101010111000000100101001000000110000
0000000000000100010000000000100000000001010000100011100001011010000001000100010001000000010100010101000100000011111100100000000100010010001101111100010100001000000000000110111010100110111000000010010010010010000001100000010001000000001001110100000101001000
0000101000000001000000111011010101001000000000000000100110101110000100100000010100000000101100000100000111101000000011000010000101010001111001000110010100000111010100100100100001101010011000010010010000001100000111100100110000000000001101110000001000100100
0100011100100000110011010110010010011110001000001000000101001011000000010000000000000000011000001000000001000010000100000101001100001010000000000000010000010001011101100010100000001011010000100000001001110001000000010010000000100010000010001011001001000100
0010000000101000011100010000000010000001000001111000100110000010100000010000010000001000000001001010000000100000100101011001001011010001001010000000100000000000000000010000100100010100000001011001011110000000000010011000001011101101011011000000001001000100
0110000000010101000010100000101000010000000011001000100011100000001000000010101010000000010000100100001010010010100000000001000000100000000000000000000000000011000010110000100001011101000100000100101000000011001010001000010000000000000000000011000000001100
1100000000101000011011011100110000000000100010011000001001000010000000110000000010100000000000000000000000001001000000000000001100000100000001000101110010000001001010000000000100001010000000010100100000000000000100101000001010000000010100100001100001010001
0100000000010000001101010000000000110010001001000000000111110100111101010100101000000000110010001001010001001000000100000010000100000000000101000110010100011000000100010010101001000000101000010011000111000000000110000100010000000110000000000010000000011000
0101000100010010001001000010111111001010011100101000011000100000000010000000001100000110101110011010110011000000000001000000000000111001010001101001000000000100100000000000000000011100010000000000000011000100101010000100001000111000000001000111001010000110
0001001110000000000110100000001011001000000011001000000000010010000000111010000000000100100000000000000000010100111001100100000001001001000010001100000010000001000101000000110110011100010000010000011000010000010100000001100000011010010010000000000000000000
0100011010010000000100000111010100100000100101000000000000000010001000100101000001100001000101110000000000111000011000011000010010010000101001110001010001001000000110010100000010000100000110001000110100000000100110010000001100000011000100001100001101000000
0000000001010010000000000101100010010010001000000000000000001010010010001001000000000010010000001001000111000000110000000010000011000000000110010010000011001011100000110001000101010001011000010000011010011100000100000000100000010100010000100000001000011110
1010000000000000010100001000110000010100010000101010000001000010000001001100000000001000101010100000000100000100000100010001010001110011000010001111000100000010010010010000000000000010000001010011100000001000000010010001001000001000101000000001101100010100
0000001110000011000000100000010000000101110010000000101000000001001000000000100000000001010001001000100010001000100000001011101000000000000000001100000010000000000001000000001000011100010000000000100000000001000000110000000100000000000000000010010000000000
0100000100100101101000000101000001000000110000010011000110000010000100000000010000001000000000000101000010000000001010010010100000100010000000000010000001000000000100000000101001101100000100001001000001100000100000100100001001000100000000000010000000000100
0000000000000000010001010000000100100000000000001000100001000100110000010100000001110001001001010010100000000111000000001000000000110001011101101010000010011100101000101100000100010000000010001111000000001000000100100010100010000000001000000000011001100101
0000101110000010010000001110001001100110110000000000000000110110100000100001110001001100000001000000100000100100000010000000110000001110000100000000000100100001100001000010000000000010000101000000111010000010100001000000000010100000001000000001001000010001
1010000100000000010000010001000000001010010001001100000000000000101100000000010000000010000000000000000101100000000000000010111000000000000000001100000010011000011101100011000000010010000001101100100000000111010111010000100101100001000001010101000100000010
1000000000010000000000000101011001001010001000001110010010000010010100100000101010000001000100000001000110100110000000000000001001011000000010000100010001011001000000000000101001000000100000100010010000010000010000000100011010010000000100100001000101001101
0010010010110000000011000010000000000001000000000000001000001000100000000000001000000011101000001011101100010000000000010101001000010010100000000010000000000001010110000000000000001000000101111001000000000000010100001010001000000100101000101100100010000010
0101001000000000000000000011101100000001000011000000000000000000011000010000000110100000001000000010010100010010010000000001010000000101000100000110000000010010000000000010000101000000010101100100100001000100000000000010100000100011000011000011010010001000
0001010001001000000000000001000000110000000100000100011100001010000010010100010000011000000100000110100010010010000001000000000100000100000000010000100000111000000000000000001101000000100110000010001100101001000100000001100011101000000000010110100101000010
0000000001101000010011101000100001010001000100010000101111010000000001011000100011000011000000001001100000101000000000010010100000000000000110000000000101001000100000001101001000010000000000000100000101000000001000001000000011010000100000000011000010110000
1000000101011001010100111001001000001010000010000000000000001011000000000110000001100001101000000000100001000001001000000010100001100110001100011010011000001000111000000010100000000001000010110001000100100001000000100100000010000101001000000110000010000100
0101000000101010000001110000000101000100000010010100010001000001000000000001000011100000000010000100001000000100000100010100011010000100110011000000010000110100010000000000000011011010000000000100011001010000000100001010000011100101000100001110101000010100
1001010011010100001000000100000010000000000100100101001100001100000000000101010101101101000110000010100100000000000101000100010010000001000000000010011000000000101110001001101010000001000000100010010000010010000010001011001000001000000101010010001001001001
0000000001001101000100101100100010000000001010100000000110000000010000110000011110100000010010000011000011000001010000010000000001000010001000000000000010101010000101001001100010000001000000000000010000011000000000000000000000110000000010000011000001100000
0000000011010010010001100111000000000001001100100000000000000100010000100001001111000000001001011010000000101000100000000100010000000100000010100001001001110010000000000000010000111100010100000000000000010100000000000000011011000100010100001100000010000010
0010001100011100000000001000000001000000000010001000010100000000000000100000100000001000000100001001110000111000000010001010010100010000100001100101000001010010000100000000011010000010011000110000100000100000000010000000000000111000000100000001001000001100
0101110000010000000000000110100000000001101011101010100100010000000101010000100010010110000110000010001000001000000000000100000000000000100100110001010100101000000101100000100000010101000000000001000100001000000000010000000000001010010101100000101000000000
0000100000000000000110000100100011000000100000100011010000000001100000010000000010001010010010100000001100100000001000100000000010000101001010000000000100111000000000000010001100010101100011000001000010000000000010000000000000001000010101100100000000000100
0000000000010110101010001100000011000001100111100111010000000001001000001010010000001100100001000110100100000000100001010000110000010000000011100000000001000000000000000001000000101100000000010000000001000000000000000000001000000001000111010001001000000001
0010000000111001111001100010001001000000111010000010001000000000010010100110011010000000100101000000000001100010000101000010000001000000000011000000010000000000010000001000000000100100001000100001110110000010100000100001001000000110000111000000111010000100
0100000010000000000001001000000000000000100001111000000101000011100100000010001000000011000100000100011001001000000000001010010010100001100100100110100000000110010010001100000000000101000010010000001000101010000011000001000000000000000110000010011011000000
0001110110010001010100000100000000000001000000101001000010101010001010000000000001000100000000000000100100000000001000000001101011000000000000010100010000001001000100000000100000010001010010000000010001000000000100000000110000000001100000000000000000010000
0000100000010001000011000001100000010110000001000011010001100001000100100011001000100000000011001001000100100000001100000010011000010000000000110000000100011000000001001000000010100010001000011000000101100010001000101110001110001000010101100101000000011100
0100000000100000100100001000001000000000010001000010000111000001010000000100100010011001100010110000000100001000000000000010100100000100101000000000010000001000100001101000000000000010001001110100001110110001001110000010001101000000010101010101100010010000
0100000100010010010000000011000001011110011001000100001100000011000100000000000111001100001100010000110001001011001010011110000000001000101000000010110010011110001000100001010000000000010000000000000001000000011011000000000100101011000000010111100000100010
0010100100000001100010010010010000100001000101011101000100010000010010110000000000100011001000110000001000000000000010001000000001000001000101000000000000000000110001000000000000100001001000000101010000000000000000011101010010000010100000000000000100000000
0010000000000001000000100000010011011011100100000010011000001000010100000000000000000100000101000000011001110000010011101000101000000100000001000110000100000100110000000101000100011101001000000000010000100000010000010010001000001110001001010000000100000000
0000111010101010010000010001100100101000010000000100000010000001010000100000000000100000000111000000010010100000101001010000100011000000101110110000000000010000000000010000110100000000000000100000011010000010101100000000000001010001010000000000010000010011
0000110110010100101000000100110100110000000100001101101000110011001010000010010000110000001000000001100000000100100001000000000010100000000000001000000000010100000011001100000010100000010000010000100110100000010101000110010010001010000000100000000010101000
0010100000010100000100010000100000001100100000010000010011001000000001000000100100000010100000000000010110010001000000000011000111000010000000101100010000000110110100101000000000000000101000101001100100100000101011010000010001001000001000100001100000010000
0011010010010001000000000000010000011000100001010101000000010001000000100011100011101010000000000000001100100000000001000011001010000000011111000000011001000100010000000001001100001101011001100010000000000100100110000000010001100001000000000000000100010101
0000001000000010001100000100001000000000100110100000101010000010001001000110010001010000001000001000001010100100000100000000010100000000000000000000001000010100000000000000101000111000000010100000000010000101101000000000000000000000010001001100010000010000
0011001000000110000010001010000101001001000000100001100000000001000010110010111010010010010010001000001000001100010010000000100000110100000100000000010001001011001000010100010000000011000000000000100001000000001000001000000110010000100000010000000110010100
1000100001100000000001000000000100000100001000001110001000000011000000000001000000010000100010110100000010111000100100000000010000110000000000010000010000010010000110110000100010000010101000000010010010000011010000001100000000000010000001000100110010000101
0000110000100100000100000010000010100000000000000101011000001000000000000010000100001100100001100011100100001101000101000100010000100000100100101011100000011011000111000000000000010000000010000011100000000000000100000000100000000000100010001001100000110100
0001010001110001000100000011010000000001110010010000111011000000001100001111000010000110011100000110001010000000101100110101000000000000100100110000010100010000101100001001110001000000100000000001000100110010000100000000000110011000001000001000000010010100
0000000011000100000011000011000010110011000100010111100001001001001011000100100001000000000000010101010101011100000000000000000001000010100110000100100001100001110000001010010111100000000001000000110101001000000000001000010100010101001000000011000100000000
0100100000000000010001010000010001010011010000000000100101100011001000001000001001000001100010100000000010000110110100100010001100101000011010100011001010011100001010100010100001001001000001100110001000011100100100000001000000000000011110010000101011000000
0001000000001000001100000101011001000001010001000110000101010000010000011100010000110101001000110011010000010110000110000010001010010100110000010000001001101001011001000110000011010000000001000011010001110110100000000000000000100111000101000010000100110000
1000011000001011110101000000010010010000110010000100100000001000110000000011100000010000000000100100010010100000101101110000010001010000010011110000000010100000010000101000001001000001000000011110000000001010100000000000010000000000000111000000100101001010
0001000000001000101000000111000000000100010000101001010001000110010010000000010000111000100110000000111010000000000011010010100001000011100000010001000101010000110000000000010000100011011000100001100000010000000000000000110011010001111011001001010100010001
1000000100000010000000100000000001000100100000101011100000000000100100110100000100000000000000001001101011100000000000011010011000101000011101000011010100000010110010000101000000000000000000100010001100000011100010000010000011000101110111000000000010010000
0001000010000110000110110100100000000000000010000000100010101000000000100101100000000001000010000000000001100000000010001000001100000000000000100001000010000010001000000000101000000001100010000000000000000000010010101000010000000010000010010000010100000001
0000100000010011000000000010110000000100000010010100000110000100000000100000001001000000000010000100001000000000000001111000000010100010110000100001000000010000010000110000010000000001010100010100000000001000000010001010110000010000110000001100100101010000
0100011000011110110000010001110000010000001000100001000010011000101010000000000000100010000000011000010101010000000000100000000000010000000000010000001011010100000001000000000110000110011010010001100010100001000100011000010100010110000011010000101100110001
0000000000000101000100100000010001010000000000000000100010000000111000000001000001000000000000100000100001000000000011001100100000000000001010000000010000010001101110001000001000000010010001000000001000000000000000000001100000100001011000000000000001010000
0000001001000000000010000000010000011000000000100000001010000000110001000000001000000100011010010000000100010000000011110000000010000000000001000000110010010000100000000000000001100000011000000000001000001000101101000000000000010000100000001010111011001000
0000100101000010001000001000010010100000110001001011000010110010000100000000000110000001001000000001011101110000000000010011000101000010001000000010001110100000000110000000100110000000000000000001000001001000000010000010010001000000000000000000100100001110
1001101000010001001000000001000000100010001001100000000001000000000001010000000000010000000011100000100000101010011001000001101001001110101000000000100010000010000000001000000000001001110100000001000100000011000000001000000001001010000000000000001011000000
0000000000010000000010000111000110000011001001000000000101010001100000000000100010000011000000111010001000011001011010000000010000000000000011101100001010100000000101010000010000000000011000100000000000000101111000101000001100010101000100000000000001101101
0000010010001000010001100100000000000000100001000100000010000000100000000000000000000100000000100000000101010001101000000011100100010010000000000100000000011001010001000011001000001010010000000010001000000010110010010110001111101000001100000010000010000001
0100000000011000100000000010010010110000000010000010001000010000010101000010010101000010000010010000000100011101001100000000000000010000001000001110001011100111110100000000001110000100000001000100110110001000000000001100100010000000101100000000100000000101
0110001100000000000000001001000010010000010100101000100000010000010010100000000000010000100011100000000000000111010000000011100000110010010001110000001000011100000000100001100010010000100000001110010000000000000001110000001001110000000000000010011000100000
0010000000000000010100000001000000100000000000001010110000100000100000000010000110101000000010000000001100000000010000000000000000001000000011001110000100001010100110001000110101011001010000000000000010000000000001000000011000001010000000010000000010000001
1101001111011000110000101000000000000100000110100000000001000010001011001000011000010001101110000110000001101100000100101000011110010010000100000101000001000000000010000001001100000111000000100001000000110100100000101000111000100010100001010110000000000000
0000000000000000010100100000000100000011100000000010000100111000000110000011000000000000010000000110000100000000000110101000100000000001011100010000100001000000000100100010100001000110010000000010000001011000000001100000100010000000001000010000010010000000
0000001011100000000011100000110000100101000010000011010000000000000011011000011000000010010100110000100000001000010010101001001000001000000000110100000000000010010100000001100000001110101000000000000100000000100010011000000111000000000000000001000000000010
0010000110000000000000101001000010010110000000000001001000000000010100011001000110110010101000000001011000010100000001000010000000001000001010000100100000100100101001000010111000001010010010000000011100100000000000111000100110010100101101100000000000000000
0100000010001001101001001000100000000000000110010000010000110100000010001110000100000000011000100010000001100110000010000010100001000000000010000100100000001001001011110001011000110011100110010000100000010001001000000000000000001111000000000101000000000000
1001000001010101000011010011100100010001000000000000110011100110000000000000100000010000000100000101000001000010000100100010000010001001100010000000011000000100000100000001001010110000010000101100011000001010101000000000001000110000000100101001000001011000
0000010000001000010000001010011000000011100111000001001000010000011000000000000110000100110000011110000000100001001000000010000100001000101010011110100100000100100000000100010101010110010000110000000000010000110000101000010100100010000011000100000010000010
0000100000010101010010001000000000010000000000111001011001010000101100000100001001000001010001010100000010011000000110000000001000100000000100100001100010000000110001100010010111010000000011011100001000000000000000000100000000000000001101100001100000000000
0000000101001000001001011010001001000000011010001000010000001001000101100000001000000000100000001000111001000101000000001000000001000000100000000101110110010011000000010000100110000100110101000000010010001000000000100000000000000000101000101000000010010000
0110000000000010101010000000000000000100000000000100000111010001010100100110000000010010001000000000110000110000100000111010000000001110000000100000000000001000001000000000000100110000111000000100001000001000101000010001010000010100000000100000000000000110
0001000000100000000100100100100011101000100000101100101000100001100000010100000000000000000010000000000001000100000010000100110110010011001100011000000000010000001111000100100001010001000100000000100000000100100010000110101101001000010001000000000100101101
1000000000010110000000000000010000101000010111100000001000000100000000010001101100100100000100100000100000100000000010000000000000010000000001100111010101010000000001100000000000000000001000000000110010010001000010011000010000010110000000010001000000100011
1000111001000100000010000000000011000100100000110101101010100000000101010010001001000000000000000100000010001001000110101010000000011000000110010000101110100111000001000101000100000010010001000101101000011000100000001000010000000110010000001000001000001000
0000000010000011000000001011100000100010000000101000110101010001100100100001000010000100100001000000000000001000000000000001000100001000000100100001011000100100000001100000000101011010010110000000000101000001100010010000110000000011000000000010000000100001
0011001001000111000000010001000000100000000011001010001001000000010000000010000100011000100110010000001110101001000010000000000110100000011000000001000000000000001000000001011000100000100010010000010101000001000010000000110000100001001000100001000000000100
0010100001000000000100001010100100000010010011001000000001000001000000100000000100000000000000000010000001110101000000001001000000000000100011001000000001001000100010101000001000001001000000010000001001010010010000001010001000001000000100010000010000110010
1000001011110001000000000010100010101100010000000001000111010000010000100000001001000100000110010010000001000100010110010001010010001000100000000001000111000000000000000100000101010000010010010000000101010101100000101000111000000001100100000100010000000100
0000001000000100000011010011110000000000110011110101000010000010001000110001011000001000100001010010101110000100000000000011000001001011000000011101010011101001001110000110010000100000000010100000010001000100100100100010100100100100000000000010001010011000
0001010100010000110010100010001101000101111010000010000100010000101100000100010100100111000000010010000011010000010001000100011110000010010001011001000011010000001000010001001000010100010000000111001001000000000000000000101001100010000010000101000010110000
0110000000001000001000011000100000010010000010001000100011000111010000100000000100010011000001100010000000010100001001001100000000000100010010101001001000100010000000001100100011000000000000001010101010000100110000000110010000110001100100000110110000000001
0000001001000100100000001000000100000010001000001000000010000001010000100000000000111010101000010100001101010011000001001000100001010101000001000000011000001100000000010001010000001110010100000101110100100101011000000100000010100001001000010011011000000000
0100100001000000000000011010000010100001010100001100000110000000011000000000101000001000011000010000010100111000100000001001100010001010000110000100011011000101000000000011100010000000000101100010000000000110010011100100000100000000100000000001001001000000
1000100100101010101000000001010000100000010010011001001010000001100110101000001000000000000000001100001000000000000001010100000010001000010111000000011001000000000000000010000100000001110010100110000100010000001001010001001001100110010100000100000000100000
0011000111010000100000100000000000010110110000100100001011000110100110001101000000010000110000100100000010000000000001110110111010100100000100010000010000010000010010000101000110010000000000000001010100100110101010100010011001000010010011001001000011100000
0001001100000010100100100000001000000010000000001101000001000010001101100011001010000000100010100000001001000100000100010100000010000100000000000000000000110001001011000000111000011110000010001000000011010011000001101100000000010110000000001010000100000100
0110000000011110010000001110000000010000011001000110011100000101010100000000000000111000000000000000001001001111000000000010000001100101101111000000101100101010000001010001010110001100100000100000101010011000001000000101010010010101000000000101001010000000
0000100000100010100000000100001000000000000000000010000100010100000000000000100000000000100010000000001010000000001010000001011011100010000000000001000000000000000000000101000000010010000001000000000000100010000011000000000000000000110000010001000000001100
0010011000100010100000010011100000011010001100100100000011100110010000000100001110001001010110000110110100000100011000000000000100100101000100111100000010000100000001110000000000111000010010000101100101000001001010000010101000000000101000001000010000010100
0100100000000100011010100000100001000011000000101100110000000000000000000000001010100000000000000011000001100000100101011000000100000011000001111001000000000000100000101011101011000010110001100000100000000001001000001000000101010010001101000001001000011101
0000000000000000000000010001000101010000000000100011000011000010000100010000010000001100001000100000000100001100000100000100000010100110001000000001000000010000000001000001110001000000010010101100001100011001011000000001100000001000001001000000000000000010
1000000101000110110000001001100101010000000001000000101000000100101010101000000001000000000010000000000001010010101111010000000001100010001110010000010001010010000001001000001000100011100000000000000100100100000110000010101001010010110010100011010000110000
0110000010000100100010000010000101000010100011101010010000000000011001000100010000110010000000000010100010101000100000010011000000000100011110011000000010000000111000011001000110000000000000010000000100001000000100000100100000001000001111000101000000000011
0100010000000011000000000000000010000000100100000000110100000000000000010000100101101100000000000000000010110000000101010000010000000011000101000011000000001100001101000011000000100000001111000010001010000000100110001010110100000000000000000100100000100010
1101011000100001000000000001001000110000000000110001110000100010000000101101100100110100001010011001011101001001111000101000000000101100000010000110000110000000010000110100000010101000000100000000000000110010000100100101010000001010000100000001000100100100
0000100001000011010000001000100000001010000011010000001110000010011000101100111001001100011110000000101001100000000000101100001000010000010100100001000000100000100000110010101110000000000000100000101100000000000010000000000001010011100110100000001100010010
0000010010000000010000100000000011000000000001100010000001000001000000100000000100000000100010101111000001000000100000011000010110000011000000110000010000100000100000100011000001001110100000110011100000111000101000000000000111110001000011001100010000000001
0100001000011000001000000000011000010010000000000000000101001000001100000001000001110000100010000100111000000110000010010100100000100010000001000001000010000001000000100100000111000001001010000110000010000010100000000001010101010000001101010001000000000100
0100011000011100100010100010101011100001001010000100001001101100101000010110000000000000010000000000101010100000010000110000001000100010000100010010000000000010100010001110100100100000000000100001010000011000001100001000001100100010000100000001001001000010
0010010001000011100011111010100100010001100010000110000100000001001000110000011010000000000101100100000110001100011000010100010011000000010000000000001001001101000101101001100001101000100000000000000000000010000100001000011000000000000100001010101000011001
0001101101100010100000001001000100000110010001001001000001100000000100001010001100000001100001100110000010111101000000110000100001000000000000000100000001010000001100010100001101000100000000010001000000100100100010010000000001000110000000101110001000000000
1000000111000010000100000000001000000000100101000010000100100100000000101000001010000000000010000000100101100010010000000000011000011000100110000010000001100000010000001110010000000000010000010000001000010010000001010110010010000000000000010101000001110000
1000011100000000000010000000000001010100000000000010100001100010110001001010000011011000010000000100011100000000010101010101100100001000000100000000000000100000110010100000010010000000000001000100010100000011000001010000100000100100000010011000101100010000
0000101110010001001000010111000000011010010000101101100100001100010100000010000010000000100000001000011001000100010100000110001000001000010100000110000000000001000101001000000010001000000001100100000010100000010000000000001111001000000000101010001001110110
0110100111100110011001000010100100100100100100010100100000100000100010011000000001001000001101001000001000100000100001100000011001001111000000000011010110100000100010100000000110000100010000000010011010001000011001000000000101000001000001000100010011000000
0000000000000000011001010010000110001000001010000000000001101000001000101000000000001000000110000100010001010001000000001001001001000101010000000000011000011110100101000010000000000000010100010000100000011100000000100100100110000000000101000110000000001010
0001100011000010100000010101010000011000100011001110100100011010011100000000000000000000000000010000110000000001000001000000001000100000000010100001010001011000010000000001000000000000000010000001000000001100100000000000001000000100000001001000000010000011
1001100000010011001001110100001000010111010000100000000000000000000000100000010011000001101100001100000110010000010010000100000000000000010001000000001011000001101010000001001100001010110100001000001010000000001001100011100000001100010010100100100100000010
0000000010010010000100000001010000000001010000000001100011000000010000100000010000000000100000101000100000100100000000000000000010001010001101000100100000010011011000000010000001000110001000000000000001101000100001001100001100011110000000110001010010111110
0001000001110110010000000001000011011001000000100010001010100010000000011001001000000100000000000000000011100000000000100001010001000000000100011000001000101101001000100100000000101010001100101100011000000000000000001000000000010000001001001010110001010001
1011100000100010100100000011010000001001000001010000010000000000001000001000010011000010000010100010000100000100000000101010101100000010100010110101101101100100100000011000010110000111000000010011010001000000000010100000001001000000111000000000000100010001
0010001001110011000010010000101011101001010010000101100111111010100001000100001011001000010000010001010101000010000100001101110000101000000001010010001100001001100000000000000101000000000011000000001010000100000010000010100100000011001000010000000000001010
0011000000000001010011011000000000010001000011000110000010000000100000000000000000110000000010010000100110001001000001000100011011000000100100100011000100000000001100000001000001001100010000000100010100111001010000000000001000010010100101000011010000011000
1000000001001111110000001000000110110000000000100000000010000010000011000100110010010100000000000011000000010010010000110010011100000000110010000010001010001000010000001000000010011100000000010100000000000000000110000100010100001101010000101010000001010000
0001000000100000000000010000000100000000100000110100000000010100101000100001100000000100000000110010000010000000100100010110000011110011001000001101000001001011010001001001100000010000100001000000100001001001000100010011000011001010010010011000000000010000
0100000101001001000101001100101011111001000010001011001010000000110000000000000111010000001000001000010010100000100100011000000101100000000001010101001001011010000111000001001000010100000001001001001011001001010100000101100000011010011000010100010000110111
0010010000100100111000001000110000001100000100000001110001001010001001000101100100000000000000000000000111110000001000000101000011001001001001000000001100000110110000000100110000100000000000101000000000100000011000001100100011100001101100000000000000000100
0010001001100000110100010010010000110100010000000000000111000000000001000000000000100011001001001001000010001000001000000000001100010000100100000000010010110001100000000010000001001101011100000000001010101000000100000001010001001010100000100000000100010000
1000110010000011000101000010010000100010010010000011000100011001101010101000010100101100010000100001001000100000000000001100001111011001001010000110110000000000000000000000001110000010010110011001001100000010001100000000000100000001001000001010110111000100
0000110100000110000000000000111000000011000110001000000001101101100011000010000100100010000000100011000001000000000010100100110000000001010000100011010000010100100010001010011000100100010000001000000000101100000000001010010010001000001001001000000000001001
0000001000000100000000110000100000000010000010010100100010011001110011000000000000101111100000100010000000000000100000010011100010100000000010100011000000000100010001000101011010101000000000000011010111010000110000001000101000100100101000000010000110000000
0000100000011010010000100100001011100110011010100000100111100100000100011000000100010000001100000000110000001000110000100011111010000011000000100010101010000100000000001111000000010000011000010000100000001000000010000000100000011100010011000110000000111000
1001000000100010110010010000010000000001001100010000000000101000001000000000001011001100110001100010100001011011000010000110001000001000010000001000000010000010000000000001000000100000100000000000001000010010001000000100001010000100001000000000100000011010
1001010100010000010010000000000100010001010011001100010110000010000000000100100000000100000000000100010100000010000010001000101000110000100000001001001010000100100000001000000100000001000100001100100000000000100000100011000100101001100010010000000000000000
0010011010000100010111000000000000000000001000000110000011100001101010000001000000110000010010001010000000001001111011100101010110110011001010101000011100000000001001101000010000111010000000011000000011111000100000110010100000000000011101100010010111000010
0000101000100000000110110101111000000011100100000010100011000010001000000000000000010001001101100110010000001000101001000000100000010100000000000000000000100010000000000110000000100010000000000001100010000000000001100100100000101000010000100000000011110100
0001000000000000000000100110000101011001000001100110010100001000010001010011100000100000000000000000000000000001000010000000001000101001000000110000000000110000000000101010000000110000100000000100100100000010001110000000000100100100000001000010101111100100
0100001001010000000010010101000001001100100100110000110000000000010000100000101000000100110000000001001000000010100000000000011001000001101100001010010100100010000000010000100000010000000000001000000100110001000000000000001000001000111001000000010000000010
0000010000000000000110101001011000000000001000101000100000010000000100011011000000000100000100000010000011100000010000010000000001100010000000010000101000100000000110000000100110000000000000001000000100001000000000100000010101010111111000000010000110101000
1100000000110001000100011000011001101000000000010001010000100000000000001111001010010001000100010111000001001100000001000010000110000000000100011001001100001101000010000010000001000000000000000100000000101100100010100001101000000000010001010101001000000000
0101001100110000010010001000011000011110010000000101000001010110101100000010001000010010101100001000000000010001100000000000001011000000111000000000000001000100011000100001001000010010010000001001010010010011001110000000010010001010010000110110001000010010
0000010000000000111100000000000000000001000100010001000000010000010001101010000000000000001000000100000000010000000000001000000101000000000001000010000100000000000000001010000011011000110011010101100000000010011000000010000101000010000001001000100000000000
0001000011000111011100000000010000100000011010000000010000001100000000101001010100000000000101000000000001010001000000011000000101010010000010101000010100000010000110000010011000000000100100101000011000010000110000001110000100001000001010000000100000010011
0010011000000110000000010100000100000110001000000001011011000010000100100100100010000000000000000010011001110100000000101001000000000000000011011000000000100110000001000001000000000100000000000000001000100000010000101000000000000001110000010011000000100101
1010000001001101000000000010100100011010101000011100011000010010000101100010001000001101000001000100001100101000100110000010000000000010000010100100010000000101010000010001000010010100001000011000001010100010000101101000000100000100000000001100011001010001
0110000010110000000101000000100100100011000001000110000000001100010110011001000000010001000000001100101010001000100000010000001000001110000001100001011000001100000000100000000100000010101100001000001101010100000010000000100000001010000000000110010100010111
0001001010010000000011000000111100000001100000001000101011010000111000010100000111000001010001110000010010100000000000011000010100100100100100100100000000000001000101000011010000000100000000010100000100001110000100011110000001000000001000011000000100000000
0101010011000100001000010000110010000001000010000100000000111000101000010000100100000000100100010000000001000100011000100000010101010010010011000001000100101000001001001010100010110001000000000111100000000101010000000000000000000001010100000000011111000101
0000001010100001010001001100000001010011011000100000010000010010010000000000111000001001001100001100000110000100000010010000110000000001101000101100010111001000000100000000010000010100000111000000110001000011000001010000000000100010000011000000011100000001
1010010000000000010000001000111011010010010000110000000010010011001000010000000000000101000100011001010000000000100000010100000000100100000001000011000000100010000011001000100010100100011000010001000000000000001000000010001000000010000000000111010001001101
0001000010010000000010100100100010110010000010001000011000100011000001000001010100000010011010000000100010100000000100000001000000000001111110000010010000000000000000000101000110000100010000000000100100110000000001001000000010000100010000101000101000001001
0000001000000100000000000010010000000001000011010011000000100000000001000000101000010000101100101100000100100000100000000010010000000000000000100100100010010100010010000100010001101000010010100011000001000000010000001001010001000000010000011011000000100000
0010000000000010010100000000000110000000000011100000010010100000101000000100000111100000000100000000000101101000000000000011001010000110011000001011000100010101001000100000010000000101010010010100100001000000000001100001010010100000100101000000000000000001
0000000011100001000000000000000010000100010000000100000001000000001100100000100001001000100000000000000011010001001100010001000100110010000000000001000101000101000001110100010110101010010001100000010000000000000100000011000001000101010110001000011000001000
0101001001000001000000000100001000001100100000011100100001000001001000001001000000100000000000000011000001100000000001000010000000001000001101110100000010000000010000110000100000001000000000100000111000000011001001101000001000110000011110000001010001110001
1010000001000010000010000010000000010011001000000101100010001000000000011000000010000001101000010000010100110100000010100000000100000000010000010110100000010010101100000000000000010001000100011001010100000101000001001100101010011110100101000001100000000000
1000101000001100001100010000101000110000000011101011011100101000000010001000101000000000000100000001010000000100100011000000001000000101101000100010011100000000000100000000010110000000000010010000001100000110110011000011001000010000000101000100000000010001
1000000010000000111000100000100110000110101001000001100000000001010001010000000000000001000000010111000001110100001001100010100110011011001101000100000000100110010000010100000000000100110000100100000000000001000010011000100000100011000110100000101110000000
0100010000010000000000001001000000000000110010000010001000000000100000001110000000000000000010101000010000000010000001100000000010000000010001110000000100000000000011000000010011000100000000001110001000100001000000010011000001100100001001111001000000000011
0010100011000000000000000001000000000000110000100001010000001001000000000000010000000000001110010101100000000000001001000000001100010000000000101101011100000101000001001000000001010001000100011000000010000100000011001100000000001001010110010101101101000000
0000111100001000000010000101000001110000000010010100110001000110111000101010100100000000010100011010001101000000101000000000000000000000000100000000000011110001100000000000001110110000000100010001010000001000000000100000000101010001000000001000010100001001
1000000010000110000000111000101000001000000010010000010001011011010100001000000010010100100110000110000000000111000100100000100000001101100000010100110010101000010000000001101000000010000100110000100000000001101000100000001000110001001001000000000000010000
0000101001000000001001000010001000111010101000000010001111000000000000011000000000000000100010001100000000000000001000001101000000000000000000011010100000000000001101001100000000000000001000000001000101010111001000000100000100000100100000000001000000100000
0111000000010000011110000100100000000001000100100001000011000100000011100000001000000001001000000000000000000010000001001011010010100000001100010110000000010000000000101001000000000000111001100011000000010100000110011011001100000000000111000000000001000100
0010100001001101010000000000000101101010100011000101000000110000010110001000000000001000000001100100000000000000100000101000110000010101000000001000000000000000011100000000000100000000010000000000010100000000110000100110001101010010100010000001000011001001
0001100100001000001001100001000001110010100000100000001000011100000000000010010110000000001001000000110010000011100011010010110010000110011000000010001000100001100000000110000001001100000000000111010001100110101000100010100001001000001011001000000110001000
0100110000110010100100000110000000100110010001001001001101000011000001000100001000000000001001001000010000000000000000110000000001001000000001110011000001010000001000100100001011000001001000000100010000000010001001010000011000010001000001000010000011010010
0100011000101110000011100100010100011011000100000000000000100000000000100011000110000000001100101000000000000101000100100000000000001000010101000100010010100000001000001000100100001000110000001100010010001001010000111000000000000010000000101101000110001000
0000000010000000000001000000001001010001000000010110000000000000100100000000100010000001100001000000000001000000010000000000000000010000000000001001000100010010000000001000000110100000100000100000000000111001010000100000011010000011001000001000110010100000
0000000100100100000000110000100100011100010000000000010101000000101000101001100000000000010000000000001000001001010000010011010000001001101110000000010111100000000100101000100011000110011000100000100000000010100000001000001010000100001101110000000000100100
0010000001010000000000001000100000011000000010101101000011001010000000000100000000100000010001001110000010011011100100000110000010010111101001000101000000110010101000000000001000101000000001010000000000110000000000000101001000000000011000010001000010000010
1000100000010011001001000101001010000000100000011000101100010101010101000110000010100011001100100000000000000000000001101110000100001000011010001100010010000001100010010101010000000101000010100000000010000111000010110101110010100011010100000000000010000000
0000001000010001001100100001001010100000100110000100000000000000010010001000000000000000001110000000100110000000100001100000110010001000000100010000001000100111000011100100101000010000100101001101000000000000000101110000000000000001010001010001000000001000
0000000001100001010000001000001000100010001001001100010100010100000000110100111100100000001001001000100100001100000000110001110000000000000000100001000000000100001010100000000101001001000000010000000001010010000000000001101000000101001000010100100000010010
0001010010000000000000000001001001000001001010000100100010010000000001001000110100100000000100010110000000001100000110101000100000001000000010001100001010001110010011000001000101100000000001001000010000101000010100011000000000000000000001000101000101010101
0000000101000010010000100000100011010010010001010100011100110001000000011001100101010000000010000010000000100000010000101010000110000000100111101000000000000101000100000000000001000100101100000000000100010100110010000000001000000001110011000100000001010000
1010000000010000000000000010000010000001000000000000011100000001101000000100010001010000000000010000100110001001101001001000010100010100000001000011001010001110000000000110010010000010000001000000000000000111000110010100000000000010000001010001110010000100
1000010000010101000000000101000000001100010000101000001100010001100100000000100010011100001010101100000100000000000010100100001000001000010000000000000101010000000010001100001110101010101010010100100000000010001000001000000000000011000101001000000101101000
0000110000011110001011000000101001000000100010010010000000010010001001000010001100100001000000100000000010100100100001000000011000010110000100001011000000000000010100011100001000000111000101000001000001001010010001000000100010000001001000011000100110101000
0001011000000000001001000001000001000010101000010000001000100010110000000001000000001001000011101000010000100010100010000110001010000111000010001110001010011001010000000100110110100000000001011000100110000010100000010011001000011001000000001000000011110000
0000001001001101000100000001101101010001110010000000011000010000010000001001001100000010010010010010000010101100010001000000001000000001101001100001000000001100000001000000101001010000100001000010001000001000101110000101001110101110000000011000000111001011
0000001010000000100100001000010100000000000000001000101000000000000100000010010000000000010001000000101000001101001000010010010000100000001001010000110010001000000000000001010001100100100011000010000000010010000001010000000000100000010100010000010010000000
0100100100010001100000000011000000000000010101100001010000010100101000000000000000101100001100010001000001001101010000000000000000001010000000001100100010000000000000001001001110000010011011110010001001101100001000000000011100100000100001000001001100001000
0001000111000100100010000101001010110010010101000011001011010000000100110010001000000000000000100100000111001000010000110001010001100000100000100000011101000010000000000011100011011101010011000100010000000100010010001001110010000100000000100001011001010000
1100000000110110001000000001001000000101000010100000001101000100010000000100000110111111101100000000000001110100000001110000010101000000011001001000001001011011100000100000010001000000010000000000001000011111101000100000101000001000100000010010000000010001
0100000001001010001000100100000000100010000000000010011000110000100000000001000001000011100000000000001001011110100000000000000010000000000010000100000011001100000100001000000100000010100000000100000100001100101000111000000000100000000000000000101000100000
0000111010001010000000000000000000001001000001101100111011010001000000001001000010001111001100100001010000111100100000000010010011001000000000000100001101000110000001110010010000001010010110101000000100010011010010101100100101111000010000000000010000000000
0000000000001000000000101100000100100010000110101100010111000100001000000110000000001100001000001100000000000000000000000000010101110000100000000000000010001000010010001100001000100000011000010000000001000000110000000010100000000000001000010100101100010001
0101000000010000010010101000000100000000100100000100000011000000000000001000100010000010000110100000100001000010100000000111000000000100010000100000100000000010001100000100100110000000100000110010010000100000011000000000110110010101100100101110000001001000
0100000101010110101010100001000000000000001000100000000100100000010000000010000100100000000000000001001100001001001000000000000100100010000000000110010000000100110110010010001100011000000000001001010001101000010100001011000000001111000000010010000000001001
0000000100000011010000000000010000000000010000100000011010000001010000001010101100100100001110000001010000000001000000000010001010000000001011001001000001100100011001101000000010000010000000110001100010000001001000000010000011100000000000110000000100000000
0011001000000100000000000110001000101000101000001000110000101011000011000001111111000000100010000000000010100000001000101010000000000001000101100010000010000000110010100010011000010110010101010010100010100000000000000100000000000000000100011001000010001000
0000000001000110100100001100000000000001001000100000000100101101000100011101010001010010001110000100001010001000000000000000101101000100100010110101101011010011001000000100010000000000000000100010000010100110011001010010010101010000011000000010101001111001
0000000101011010000000000000000000010000001011000000000000000100000100000010100100001001000110000100011001010001101100010000000001000000000001000000000000100000100100001010000000010001000100001100000001000010101000000001000010010100000010100001000100000100
1001000010000100000001100001000000010000000010000000000000000000000010100001000000000001100000010001010000001010001000001001000000000000011001100000010010000100000001000110010010010000010010000001101110001100000100000001000000010000101001000000001000100100
1000001000000100001000000110100100000011000000100011001001110001011100110000000110011011100000000000000001000000101010001000000000000010000100110001001000001001110110000000000000000000000100110001001101001000101000000000000000000000011010100001010110010110
1000000101010000000001000100001010000010100100000001100010000000010100001100100000000000000001100010100010111011100100000000000000001000000000000010000000011000000100001001000000110100010101000000111100000000101100001010000001001101010000100100101011001001
0111000100101000110100010000000110001010100101000100000000000001000000000011011000100001100100001000110101000100001010100101000010100000000110000101000000000000000001010100000000010100011101000000001000000000100000011111011000010111100000000010001100001000
0000001100000011010011001000001000010000010000010010000010110100010000100100100011000000100000000000000001010001011011000000000100000000000000010100000000000001001011000010001000010000011100000001001010000100001000110100000001101011001000010001000100101000
0000010101010000000000100001000000101000000000010001000101000000000000100000010001000000000010001000001000100000100001001000000000001101010010001100000010110000001010000100000010000010001101000010000000100100000001000001100000001110000010000001010001001000
1110100100000011000010111001010111100100000010000000010100000110001100010000010100000000011100010111101100101101110000000000000100100000010110000000011010001000101110000111011110100011001000010101100000000101000010000100000011100010001100100001001000000100
0000001000000001110101001000011000100000000010000011000010001010001000000101000010010000001000001000000000010000001101000000000100001010000100000000101000000000100000100100110000001011000001000000000011001000000100011010000100001101010000011011000111100110
0100110011100000000111001010001110000000000010010000010001111001001101100100001100010101001000000010111100000000000101010000000000011000101000000010111000010010000010000100000011010000001100000010101010000000000000100000100001010000000000000000111000011000
0001100000010000010000010000000010110000001000001010000000000001001000001010100000100000000010010000000000010000000100000000100010010100010000000000000101101001000010111100100010000001010010010100100000000000010000000100010010000001000000000000001000001000
0000010000000000000001100000001000000010010100100111000000000100000000110100000010000010000000010010010000001010100001110100000000001101000001000000001001000100100000010011000010001000000000000111101111010101010100010000000001000001000100101001000100000000
