100
0100010000000000000100000000000011110101000000010100001001000000000000010001000001011000100000100000
1000100010000000010000000100100010001100000001001010000000101000000010011000101000010100000000101000
0001100010000110111011000110000000000010100000011100001000100100000011000000000000000111000000000111
0010101000100000000000000000000010000100010100100111000000001011000010000100000000000000000110000010
0111000000011010000101000010100000000000100101100001000000000100010000100001101110000010110110100100
1000000000110101110000000010000000011010100100000011010111000100010001010000001010001000000000010000
0001000000100000000010001010000000001010000000001001010001000001000000000110001100000000000000000110
0000000010100001000000010011000001000110001000000110000010000001101001001000010001111011100001100000
0110000100010100010101000100100101100000100110010001000000101000000000001110001000100000100010010100
0000000000010011000000000000000101100000101000000000010011000000101000100010001000000100000000010011
0001011100000000101000000000100010000000000010000010000001100100100000000011000110000010001100110010
0000110011000111000001101000000000101001000000101100100001110000011010000000000000001100000000010010
0000100000000000000001000001000010000000100010010000000000000110001100001000010000011100001000000000
0010010010010000001100101000000000001000010001001000000001010000000000111000101001100011010100011110
0010100001010000001100000000000000010001100001000000000110010000010001000010001001110001101010000011
0000010101010000000000111001000110010000000000111000000000110000000100100100001000001010011010000010
0010010000100000000100001000001010001001000000010001000100100001001010010010001000001001000000100100
0110010010000000000010001101000000001000100000000010100111000100001100100001000000101010110001100101
0010000000100110000000100000100010001001010000000000000000000100001000010000110100100000001000101000
1000100010000110100010111010000000100000000111110100100000000000001000000000100010001000000000100100
0010001000000000010101001001000000100000000000000001000100000000000110100001001010000000100000100000
0010100010011000000010000000000001001000000011010100000001001110000001110010011000011111001101100001
0000000000010101001100000001001010000000110100000000101001000011000000110000000100000001010001110111
0000000100000001000100000010100000000011100100001010001010100100100111100011000001010000100000010000
0000001000010101110110000000010100000100000010010000000000000011010000000010000010011101001100000000
0110000010000000010000000010000101010110100000000111001100010010100001000100110100000110010000100000
0010111100000000000100010100001000000001001010010110000010000000001011011000110000001001000000100011
0000000100001001010010100000100100000011000000110001110100000000000001001010000000010010000000000000
0100100010100000001000010001010000000000010000100100111001010011111100001100000010000110010000001000
0000000000000000000000001000100000000000100010101000110010000101000000000000101001100000000010001000
0000000000000000100000100010000000000010101001000001000000010000000000100000000000000101100000000001
0000000011000001000000001101000001011000101101001001011010100100000001000000000000011000000001000010
1101000000101001101000100000000000110010100001000001110110010000001010110000011000100100010001000010
1000000111000000000001000100000100000000010110000000000000001100010000000000010010010000101001010100
1000000011010000000110000000000010000000000010110000000001001110000001000000010000001001000111011010
1000010000000011000000000100000110000000000000000000000000000010000001111100000000010000100000000000
0100011000010100111001000000000100000100000011000000110000000101000001000110000000111000100001100010
1101000100000000000000001100000000001000111100110000000000001000000010100000000000011000001000100110
0010011100000000000000010101001010000000011000010000001100100100000000010100000000010000101100000000
1000000000010010101000010011000000000000000000000010110000000000000000101101010101010010000000000000
0010110011001010010000110100011110000100010000000010010000000000110000000000011000001000011001010001
0001000000000100001000100000100001000110100001000100000001100000001011000000010000000001010000000100
0000000101000000000000000010001100000110000001100000001000000101100100001000010000110000100000100000
0001110010000000000100110000000101000100000001010010100100100100101000010100010000101000001000000011
0000000010101000000101001010010001101000000000000000001000001000001000000000111010010000011001100110
0100100000000110000101000000001110001000011100100100000100000100010001110000100000000011000000000001
0001100000010001000100000001110000100100001001000001000000011000010011101000010000100000001010000000
1010000010001001100101001011000000100110000100000000000101000000000000100010000010000010101100000101
0110001000010101000000010000010100000000000000000100000000001100110000000100011001000000000000001101
1011000100010000000101000110100000000000010001001011110100000000100110000001100000000101000000000000
0101010100100000010000010110000000000001100100000100010000100010000000000000000011000000001000000000
0001111010000000100010000101001110000000000000100100000000010000001110001100000100000000000000001000
0000000000010000010100100001110010001001000100000100001101000000001100000010011001000101000000010000
0000011001000000000000000001110110001001100000000110000001111000100011000000000000001100000100000000
1010000000000000000000110100100100000010001010000000100000000000010000000001111010000011100100000000
0000010000000010110010000101000010000010000101010100100011011000101000001001001100011100000000010000
0000010101000010010000010010010110000000000000000000000100000100111010001000001100101010010000101000
1000011001110100010001100000100000100000010000010000110100000010010100000000010101000100010110101000
0110000010110001100000010000000100000010010100000010010000010010000001010011000010100000000010010000
0000000000010111000000000100101010000000000000100001010100100110100001100011000000001101000010000000
0101000010000000000001000000000001100100000010101000010100000000001000001000000001100000000000110010
0010110000101000011001010000010101101010001101001000000010010000010001010110001000010001010000100010
0001000000001000000001101100100000110000000000000010000001110001000010000100000000000001001010110000
0001001100000000100000101000110000001000001000000000000000000010110001010001000000101000000000100101
0000000101100000000000010100100000000000101100001100010110010001000000000000100010000010001010000001
0000110000010010000000001000100001000000100001101000001011000101000000000010000000000010000000000010
0000000101011000111100000010100010000000010110000001100110001000000000000001110000000101000000001001
0000000000001001010010010000100000000000001000000101100001000000000001000000100010010010100100010111
0111000000010000100010010010000010000100010000100101010010000010000000001000000001000100000101000110
0010010100000010000001010111000100111000010001100000010000110101000100000000001010100001000101000110
0000100001000101010011110000001010010101000001110000000000010000000000000000010010000010000001010000
1100010000000100101001100010000010010010000101000000000000100101000000001000011010000000000011000010
0100000110001100000000000011100000010001001000100001000110001000000010010000001001010100000000100010
0001001010000001000000000100100000011011000100001001000000000110000000000000001100100101010100001110
0000001011100010100001011001000000001000000000010000100000110100010000000001000001000100101010000000
1000100000100000010010010000000000000001000000000100001100110001001000000010001001110000000011000100
0100100000000100001100000110010000000000000011000100001000000000101100000000010000001001000000000000
0000000100001000001001000110000011100001111110101000101001000000001000110000100110100000001000000000
0100111011000111100011000000010010000000100010001000101110000100000001011101000000100010000100110000
0000101000100000001000100100000000000001000000000001000111000000000000000100010001000000000000100001
0000110000100000000110001000100001000000000010010010001000100000100101110000010000001011000000010010
1000000100000110000000010000010000000001000000001010100001001000000010001011000100010010000000101000
0000000110000110011000000000010010001000001100100000000010101001000001000101011000000000010011000000
1100000100001010000001011001000101011111001010000000000100000100000100001001000001001100000010000110
1000010100011001110101001010000100101100100100000000010110010001000000000000100010010001100100010000
0110000001011000000001001100101010000000000000000100110101010000001010001110000000010000000010000010
0010100100100101010001000101100000000001000001010000001010000000110100100000001011000000001010100000
0010000100000110100001101010001000100000010001000100101000010110001001000100100010001000000011000010
1000100110000010010010010000001001011010001000010000001000000000000100000010000000001000000000100000
0000100000000101010000100100100010000000110010000000000011000100000000000100000000100000001001001010
0000000000101011001001001000000001000110100110110010000000000010100000000010010000000010010010000000
0001100000100100000001001000000000100010000000010000011001000000000111000100001000001000000001100001
0001100010000011000000000000010000100000000000100000000001110010100000010011000000110111001000010000
0000000100000000010001100000000111101000100010000000000000000000000011110001000000100001010100000110
1100100100100000111111100110000000001100001010000000000011001111000000001000001101000010100100001010
0000010011110100000000110000000001100000100000000000100100101010000100100000001010001000000010001000
0100000000000100001000000000110000100000000000001001000011000000001000000100000001000000010000110100
0010101010000100110100100000000001000100010010011000000000000001000111000101000000010000000001001001
0011001001110111000000100010000110101100000110000000000000001100010111011100000010010101010001100000
0010000001000010010001100010001000000000100101011000000000000001101100000000000100000000000100000100
