100
0000010000000100010000000000100000010010011110001000000100000001001001001000011100000110111000000000
0000000010000100000110110000001100000010000001001010001100000000100100000100000001100000000011000100
0001001010000001001010000000100000001001000000001000000000100101000000100000000000000001000000000001
0010010000001000000001101001100000010001000001111111010010010100101000011000000001010000000010101001
0000011001001110001000000000001000010000000101000001110100000100001001100000000000100110000000001000
1001100011000000001000110000000101000010010010000011110001010101000000000000000000000000100010010001
0010100000000000000000110100010000000000010000100000010000011011000010010010000001100100000010000010
0000000000000011000010000000010000000000001000101000000010101000000000000000001000000000000100010010
0110010001101111001001000000000000100010101000100001000000001000100000111101001100000010000000101101
0000110010011100000100000001100000000000100110001000001000001001100111100000001100100001000010000000
0000000010000110000000101001111010000010010000010100101010000000000000000011000100100111000001000010
0000000001001110010000000001010101110010001100100001001000000000000000000000100000000000000000000000
0001100011010001001000011100100100000011100001000001100011000000001011000000100000001001010000111100
1100100011110001000000010101100001000000000010100000110010010100000000000010100001010000000000010010
0000100110110000111011001101001011000010000001000000101100100001110000001000000000000000000001000001
0010000110001100000100011001001000000000000000101010000000100010000100101110011010000111000001110001
0000000000000010000001010100001101100011101010000010001000000000000000000010111000010100000000000000
1000000000010010000000100000110111001101010101010000101000000010000100010100101110010001010100100100
0010110010001010000000010100000001000010110100000000100100000000111001000000010011000011010000000000
0100000001000001000000000000010010001000000001100100100000000000001010000101001000101010000010010001
0110000100000010000000001000011100000001010100000000000000000010111000000001001001000000000011001001
0001000010000010100000010000000000010100001000000000000001000001001000011000000010000000000111100011
0101011000100000010000000000100100000101000111001001000000001000110010000101000000100010101000011000
0100011000001101101001000000011001001000011000000000001100110000000001101000000100000001001000110001
0001000000101011000010000010101000000010010000010000100000000100100011100100010000110000000001000000
0000001000001110101000000001000000000110100000000000100000000010000001000001001011100000000100010110
0000000000000000000000001000010100100000010100010001110000010001010000000101110001000000000000100000
0001000001110111000000000100010000010000001000011000000000000011000000001000110000000000010001101110
1011000001101100010000101000001000001000011000011101100100110000101000000000100000001010010100000001
0000001100110000010110010011000001010100011000000001000010000101100001000100100000000001010010000000
0100100000100011100010011000100010110000000001000010101010100000001100000000000000100001000000010000
0100010000011000110010100010000000000000100110011010101010101001101100000000000000010100100000000000
0000000000100010010100000000001000100010110001001010101100100000100010100000000010000000000101101000
0000010000010110111000010000010000001001101000010101100010000000000010000100011001001001010001000101
0000000010010000100000000010001010000000010011000000100011000000001000101010000011000010000000000010
1001100000010000000001000001011000001000110000000001000100000100110000000001011110000001010000100000
0010000000000000010100010000100001010000010000000000001100000001001001000100010000010100010000000110
0000000000000000010001100100010000000000000100001001101101100000000000000100000000010001000100010010
1100010010111010101000001100000010000001000000000000010000100000001000000100110001000001110000000000
0011000000001000110010100000000001000010000100000000000001000100000000100100000000100000001010000000
0000000011001000101000000100000111010000001001000101000001000000000000101001000110100100010010100000
1000011000100000011010011010110010111000000100000100010101110010100100000000000111100001000000010000
1000000110010000100001010001110001000000100010000000000000000011000101000000000000000000000001010000
1000100001010000011010100010000100000101010000100010000010001000011000001101100000001000001000000001
1000010001000100100000100000000100100000001001011000000110000001110000000000000000000000000010100010
0101100000001010010100100000001010100000100010100100000100100000100000000010001000000000000100010011
0001001110010101000100000000000000000000000101000010000000000100010000000001100000000001001010000000
0001000000100000010000001011100101000000000010000000001100000000000001000000000000000100001010001100
1111000101000001000000100001100110000100000010000000000100000101000000000101000000101010010100100000
0001000000100000000100000000100001000000110001000001010010000001000110000101000001000000101000000010
0101010000000001100000000000001110000000000100100000000000010000000011000000000000001000010001001010
0001110010011000000000100010110001010100100000000100100100001010001010000000000000000111001000000100
0000110000101110011100001110101111100100000000000001000101000000001010001101011001010111101001100000
0001111000000100000000000010000000000010010000000100000010000000010000000000000100000000000010000010
0100000001110010110000010000001110001100000000010000000010100100100001000000000001011001100000010100
1100100000000010001000010000100010011100010011011001100000000101011000100000000000000001010000000011
0001000100101100000000000000011101100000000110000100011000111000000000100000000011110011000011001010
0000010000001000000001000000000000100101110000000000100000000000101000000000000001000000010010000010
0010000100000011000000010000101110000110010001000000001010000001010100101000110000100000000001000010
0001011000000100000000010010100000000000010000000010000010000010000100001100011100000000100000100100
0000001111000000000000100000000100000000000100000001000010000101100100000000010001010000000000010010
0011110000000100000000001000010000010001000000101000001100001000010011010001101000000001000000101100
0000001000000001010010000101000000000000011000000001000000010000000001010100011111001000011000000110
1010011001000010000001000011010100001000001010001100000100101000100000000100001011010000100000101100
0101000011000010001010101000110110010000010011000000001001001001000010000000001111000001011111000000
0000000000000010001010100010000000010000000110100000010100100100000000000011010000000111000010001000
1001100000001000001111000000101100101010000100000001100101000000000100000001000000000001011010100010
0100000001000001010000000000001100000000011000000100000000111000001010100101001000100000101000000000
0000001001001000000100101000000011000000000000000111100000000100100101000000000000100000100101100010
1000100001001000001000011100010000001000001000010010001000000110000010100010000000001011011000100110
0010100011000001000000011000000010100001100000000000000110100000000101000011101000000001000001000000
0001001010000000010001000000000000000000000000000000000000000110000000000101010101100100100010010110
1001000010000011000001010001000000100000100100000000100000110000000000000100001001000001000010110000
0100000010000001010100101010010001001111000100001100100000010011000100011001000000101010001100000010
0000001000100101100000000000000000100000000001000000000000000000010001100000000010111101010000100100
0000000010100000000110100110000000010000100100101100100000000100011100110100001010000110000010001000
0000000000011100110000000011110000000010000100100000000000100100000000100000001101001010000100010100
1000000000000001101000001011000001011010000000000000100000111010010000010000000000000000000001100101
1000000111000001110110000100000001010000000001000000100000010111100100101001100100010000000010100000
1000000011100000010000010000000000010000110000000000010000010010100000010000101010110101001100100001
0000000000000001011001000100000010110000110000000000000010000011100000000011000100000100010000000010
0101001000000100001010000110000001100010010000000100101011001011100000011000100000001000100001100011
0100101001100000000100101100001000000001110000001000000010100000000110010110000100000000100010000100
0001000000000100110000001000000100001100000000000000101010001001000000000010001100001000001000010000
0000000000001000000100000000100001000000000100001010001000000010000001000110100001010001000100100010
1000101000100001100000000000000100001000100000010001100000000000010000010011000110000011101100100000
1000100010100001001100100000100000100000000000001001100010000000010001000101100000000100110111000100
0010000001101001011000010000011001010110010000100001101110000100111001101010000100001100010010100100
1000010000000000000000100000000100000010000000000100101000010001000110010000000001100110000000100001
1000000000001000011000000001110001011010100000001010000101000010101001000010000010000011000101000000
1000000000000000000000110000000000000001000100110101100000000010101101000100000100010100000000011100
0000000100000000010001000100100010000100000001001000000000000000100010000100100100001110010000000001
0101011001000000000111000000010000000001100010110000010011000000111000011001001000100011000001110010
0100000000100011000011001001000011000000001000000010100010100000100010100000010001000010010010010000
0001000010001001010001010011000010010000100010001000100000010101001011001010011101001101100010000011
0000010100001101000100110100001000000100011001000000001000001000000000011000100000010000001011000001
0001100010001000000010100001000010000000000000010010000010000101010000000001000000000000001000000000
0100000010001000010000000101000001001000000000010001001000010111000001010010110000100011001000000010
0000001100100100000001000101000000101100000011000110010111101010001011010100000011001000000010100100
0011010010000011000111010000100001000000000101000000000100000000000000000000010101000000100100110000
